{
  "success": true,
  "data": {
    "items": [
      {
        "id": "dummy-musik-001",
        "type": "listing",
        "categorySlug": "musik",
        "subcategorySlug": "konzert",
        "categoryTitle": "Musik",
        "subcategoryTitle": "Konzert",
        "categoryTitleBackgroundColor": null,
        "categoryDescriptionBackgroundColor": null,
        "slug": "rock-night-arena",
        "title": "Rock Night at the Arena",
        "summary": "An electrifying rock concert featuring popular local and regional bands.",
        "content": "An electrifying rock concert featuring popular local and regional bands.",
        "languageCode": "en",
        "moderationStatus": "approved",
        "status": "active",
        "visibility": "public",
        "isFeatured": false,
        "isHighlighted": false,
        "heroImageUrl": "https://images.unsplash.com/photo-1462899006636-339e08d1844e?w=500&auto=format&fit=crop&q=60&ixlib=rb-4.1.0&ixid=M3wxMjA3fDB8MHxzZWFyY2h8MTJ8fHNtYXJ0JTIwY2l0eXxlbnwwfHwwfHx8MA%3D%3D",
        "categoryFallbackImage": "https://plus.unsplash.com/premium_photo-1669047983472-1eeb3a5ea6a5?w=500&auto=format&fit=crop&q=60&ixlib=rb-4.1.0&ixid=M3wxMjA3fDB8MHxzZWFyY2h8MTN8fG11bmljaXBhbGl0eXxlbnwwfHwwfHx8MA%3D%3D",
        "sourceUrl": null,
        "metadata": null,
        "viewCount": 0,
        "likeCount": 0,
        "shareCount": 0,
        "createdByUserId": null,
        "sourceType": "manual",
        "externalSource": null,
        "externalId": null,
        "lastSyncedAt": null,
        "venueName": "Sports Arena",
        "address": "Sports Arena, Arena Boulevard",
        "website": null,
        "eventStart": "2026-07-06T20:00:00.000Z",
        "eventEnd": "2026-07-06T23:30:00.000Z",
        "isAllDay": false,
        "organizerName": "Rock Events",
        "isArchived": false,
        "notifySubscribers": false,
        "isFavorite": false,
        "isInterested": false,
        "createdAt": "2026-06-29T00:00:00.000Z",
        "updatedAt": "2026-06-29T00:00:00.000Z",
        "timeIntervals": [],
        "localities": [],
        "categories": [],
        "priceTag": null,
        "isFreeEntry": true
      },
      {
        "id": "dummy-musik-002",
        "type": "listing",
        "categorySlug": "musik",
        "subcategorySlug": "konzert",
        "categoryTitle": "Musik",
        "subcategoryTitle": "Konzert",
        "categoryTitleBackgroundColor": null,
        "categoryDescriptionBackgroundColor": null,
        "slug": "piano-recital-classical-gems",
        "title": "Piano Recital: Classical Gems",
        "summary": "A beautiful evening of classical piano pieces by skilled performers.",
        "content": "A beautiful evening of classical piano pieces by skilled performers.",
        "languageCode": "en",
        "moderationStatus": "approved",
        "status": "active",
        "visibility": "public",
        "isFeatured": false,
        "isHighlighted": false,
        "heroImageUrl": "https://images.unsplash.com/photo-1462899006636-339e08d1844e?w=500&auto=format&fit=crop&q=60&ixlib=rb-4.1.0&ixid=M3wxMjA3fDB8MHxzZWFyY2h8MTJ8fHNtYXJ0JTIwY2l0eXxlbnwwfHwwfHx8MA%3D%3D",
        "categoryFallbackImage": "https://plus.unsplash.com/premium_photo-1669047983472-1eeb3a5ea6a5?w=500&auto=format&fit=crop&q=60&ixlib=rb-4.1.0&ixid=M3wxMjA3fDB8MHxzZWFyY2h8MTN8fG11bmljaXBhbGl0eXxlbnwwfHwwfHx8MA%3D%3D",
        "sourceUrl": null,
        "metadata": null,
        "viewCount": 0,
        "likeCount": 0,
        "shareCount": 0,
        "createdByUserId": null,
        "sourceType": "manual",
        "externalSource": null,
        "externalId": null,
        "lastSyncedAt": null,
        "venueName": "Concert Hall",
        "address": "Concert Hall, 8 Melody Street",
        "website": null,
        "eventStart": "2026-07-09T19:00:00.000Z",
        "eventEnd": "2026-07-09T21:00:00.000Z",
        "isAllDay": false,
        "organizerName": "Music Academy",
        "isArchived": false,
        "notifySubscribers": false,
        "isFavorite": false,
        "isInterested": false,
        "createdAt": "2026-06-29T00:00:00.000Z",
        "updatedAt": "2026-06-29T00:00:00.000Z",
        "timeIntervals": [],
        "localities": [],
        "categories": [],
        "priceTag": null,
        "isFreeEntry": true
      },
      {
        "id": "dummy-musik-003",
        "type": "listing",
        "categorySlug": "musik",
        "subcategorySlug": "konzert",
        "categoryTitle": "Musik",
        "subcategoryTitle": "Konzert",
        "categoryTitleBackgroundColor": null,
        "categoryDescriptionBackgroundColor": null,
        "slug": "electronic-music-night",
        "title": "Electronic Music Night",
        "summary": "Experience the best of electronic music at this night club event.",
        "content": "Experience the best of electronic music at this night club event.",
        "languageCode": "en",
        "moderationStatus": "approved",
        "status": "active",
        "visibility": "public",
        "isFeatured": false,
        "isHighlighted": false,
        "heroImageUrl": "https://images.unsplash.com/photo-1462899006636-339e08d1844e?w=500&auto=format&fit=crop&q=60&ixlib=rb-4.1.0&ixid=M3wxMjA3fDB8MHxzZWFyY2h8MTJ8fHNtYXJ0JTIwY2l0eXxlbnwwfHwwfHx8MA%3D%3D",
        "categoryFallbackImage": "https://plus.unsplash.com/premium_photo-1669047983472-1eeb3a5ea6a5?w=500&auto=format&fit=crop&q=60&ixlib=rb-4.1.0&ixid=M3wxMjA3fDB8MHxzZWFyY2h8MTN8fG11bmljaXBhbGl0eXxlbnwwfHwwfHx8MA%3D%3D",
        "sourceUrl": null,
        "metadata": null,
        "viewCount": 0,
        "likeCount": 0,
        "shareCount": 0,
        "createdByUserId": null,
        "sourceType": "manual",
        "externalSource": null,
        "externalId": null,
        "lastSyncedAt": null,
        "venueName": "Club Venue",
        "address": "Club Venue, 33 Nightlife Lane",
        "website": null,
        "eventStart": "2026-07-11T22:00:00.000Z",
        "eventEnd": "2026-07-12T03:00:00.000Z",
        "isAllDay": false,
        "organizerName": "Club Promoters",
        "isArchived": false,
        "notifySubscribers": false,
        "isFavorite": false,
        "isInterested": false,
        "createdAt": "2026-06-29T00:00:00.000Z",
        "updatedAt": "2026-06-29T00:00:00.000Z",
        "timeIntervals": [],
        "localities": [],
        "categories": [],
        "priceTag": null,
        "isFreeEntry": true
      },
      {
        "id": "dummy-musik-004",
        "type": "listing",
        "categorySlug": "musik",
        "subcategorySlug": "konzert",
        "categoryTitle": "Musik",
        "subcategoryTitle": "Konzert",
        "categoryTitleBackgroundColor": null,
        "categoryDescriptionBackgroundColor": null,
        "slug": "folk-world-music-afternoon",
        "title": "Folk & World Music Afternoon",
        "summary": "An afternoon of folk and world music celebrating diverse cultures.",
        "content": "An afternoon of folk and world music celebrating diverse cultures.",
        "languageCode": "en",
        "moderationStatus": "approved",
        "status": "active",
        "visibility": "public",
        "isFeatured": false,
        "isHighlighted": false,
        "heroImageUrl": "https://images.unsplash.com/photo-1462899006636-339e08d1844e?w=500&auto=format&fit=crop&q=60&ixlib=rb-4.1.0&ixid=M3wxMjA3fDB8MHxzZWFyY2h8MTJ8fHNtYXJ0JTIwY2l0eXxlbnwwfHwwfHx8MA%3D%3D",
        "categoryFallbackImage": "https://plus.unsplash.com/premium_photo-1669047983472-1eeb3a5ea6a5?w=500&auto=format&fit=crop&q=60&ixlib=rb-4.1.0&ixid=M3wxMjA3fDB8MHxzZWFyY2h8MTN8fG11bmljaXBhbGl0eXxlbnwwfHwwfHx8MA%3D%3D",
        "sourceUrl": null,
        "metadata": null,
        "viewCount": 0,
        "likeCount": 0,
        "shareCount": 0,
        "createdByUserId": null,
        "sourceType": "manual",
        "externalSource": null,
        "externalId": null,
        "lastSyncedAt": null,
        "venueName": "Cultural Center",
        "address": "Cultural Center, 10 Folk Road",
        "website": null,
        "eventStart": "2026-07-14T15:00:00.000Z",
        "eventEnd": "2026-07-14T18:00:00.000Z",
        "isAllDay": false,
        "organizerName": "World Music Circle",
        "isArchived": false,
        "notifySubscribers": false,
        "isFavorite": false,
        "isInterested": false,
        "createdAt": "2026-06-29T00:00:00.000Z",
        "updatedAt": "2026-06-29T00:00:00.000Z",
        "timeIntervals": [],
        "localities": [],
        "categories": [],
        "priceTag": null,
        "isFreeEntry": true
      },
      {
        "id": "dummy-musik-005",
        "type": "listing",
        "categorySlug": "musik",
        "subcategorySlug": "konzert",
        "categoryTitle": "Musik",
        "subcategoryTitle": "Konzert",
        "categoryTitleBackgroundColor": null,
        "categoryDescriptionBackgroundColor": null,
        "slug": "choir-concert-summer-songs",
        "title": "Choir Concert: Summer Songs",
        "summary": "Enjoy the harmonious sounds of the city choir performing summer classics.",
        "content": "Enjoy the harmonious sounds of the city choir performing summer classics.",
        "languageCode": "en",
        "moderationStatus": "approved",
        "status": "active",
        "visibility": "public",
        "isFeatured": false,
        "isHighlighted": false,
        "heroImageUrl": "https://images.unsplash.com/photo-1462899006636-339e08d1844e?w=500&auto=format&fit=crop&q=60&ixlib=rb-4.1.0&ixid=M3wxMjA3fDB8MHxzZWFyY2h8MTJ8fHNtYXJ0JTIwY2l0eXxlbnwwfHwwfHx8MA%3D%3D",
        "categoryFallbackImage": "https://plus.unsplash.com/premium_photo-1669047983472-1eeb3a5ea6a5?w=500&auto=format&fit=crop&q=60&ixlib=rb-4.1.0&ixid=M3wxMjA3fDB8MHxzZWFyY2h8MTN8fG11bmljaXBhbGl0eXxlbnwwfHwwfHx8MA%3D%3D",
        "sourceUrl": null,
        "metadata": null,
        "viewCount": 0,
        "likeCount": 0,
        "shareCount": 0,
        "createdByUserId": null,
        "sourceType": "manual",
        "externalSource": null,
        "externalId": null,
        "lastSyncedAt": null,
        "venueName": "Cathedral Hall",
        "address": "Cathedral Hall, Cathedral Square",
        "website": null,
        "eventStart": "2026-07-17T18:00:00.000Z",
        "eventEnd": "2026-07-17T20:00:00.000Z",
        "isAllDay": false,
        "organizerName": "City Choir",
        "isArchived": false,
        "notifySubscribers": false,
        "isFavorite": false,
        "isInterested": false,
        "createdAt": "2026-06-29T00:00:00.000Z",
        "updatedAt": "2026-06-29T00:00:00.000Z",
        "timeIntervals": [],
        "localities": [],
        "categories": [],
        "priceTag": null,
        "isFreeEntry": true
      },
      {
        "id": "dummy-musik-006",
        "type": "listing",
        "categorySlug": "musik",
        "subcategorySlug": "musik",
        "categoryTitle": "Musik",
        "subcategoryTitle": "Musik",
        "categoryTitleBackgroundColor": null,
        "categoryDescriptionBackgroundColor": null,
        "slug": "dj-battle-championship",
        "title": "DJ Battle: Beat Championship",
        "summary": "Watch top DJs compete in an exciting beat championship.",
        "content": "Watch top DJs compete in an exciting beat championship.",
        "languageCode": "en",
        "moderationStatus": "approved",
        "status": "active",
        "visibility": "public",
        "isFeatured": false,
        "isHighlighted": false,
        "heroImageUrl": "https://images.unsplash.com/photo-1462899006636-339e08d1844e?w=500&auto=format&fit=crop&q=60&ixlib=rb-4.1.0&ixid=M3wxMjA3fDB8MHxzZWFyY2h8MTJ8fHNtYXJ0JTIwY2l0eXxlbnwwfHwwfHx8MA%3D%3D",
        "categoryFallbackImage": "https://plus.unsplash.com/premium_photo-1669047983472-1eeb3a5ea6a5?w=500&auto=format&fit=crop&q=60&ixlib=rb-4.1.0&ixid=M3wxMjA3fDB8MHxzZWFyY2h8MTN8fG11bmljaXBhbGl0eXxlbnwwfHwwfHx8MA%3D%3D",
        "sourceUrl": null,
        "metadata": null,
        "viewCount": 0,
        "likeCount": 0,
        "shareCount": 0,
        "createdByUserId": null,
        "sourceType": "manual",
        "externalSource": null,
        "externalId": null,
        "lastSyncedAt": null,
        "venueName": "Event Hall",
        "address": "Event Hall, 55 Beat Street",
        "website": null,
        "eventStart": "2026-07-19T20:00:00.000Z",
        "eventEnd": "2026-07-19T24:00:00.000Z",
        "isAllDay": false,
        "organizerName": "DJ Association",
        "isArchived": false,
        "notifySubscribers": false,
        "isFavorite": false,
        "isInterested": false,
        "createdAt": "2026-06-29T00:00:00.000Z",
        "updatedAt": "2026-06-29T00:00:00.000Z",
        "timeIntervals": [],
        "localities": [],
        "categories": [],
        "priceTag": null,
        "isFreeEntry": true
      },
      {
        "id": "dummy-musik-007",
        "type": "listing",
        "categorySlug": "musik",
        "subcategorySlug": "konzert",
        "categoryTitle": "Musik",
        "subcategoryTitle": "Konzert",
        "categoryTitleBackgroundColor": null,
        "categoryDescriptionBackgroundColor": null,
        "slug": "blues-soul-evening",
        "title": "Blues & Soul Evening",
        "summary": "A soulful evening of blues and soul music in an intimate setting.",
        "content": "A soulful evening of blues and soul music in an intimate setting.",
        "languageCode": "en",
        "moderationStatus": "approved",
        "status": "active",
        "visibility": "public",
        "isFeatured": false,
        "isHighlighted": false,
        "heroImageUrl": "https://images.unsplash.com/photo-1462899006636-339e08d1844e?w=500&auto=format&fit=crop&q=60&ixlib=rb-4.1.0&ixid=M3wxMjA3fDB8MHxzZWFyY2h8MTJ8fHNtYXJ0JTIwY2l0eXxlbnwwfHwwfHx8MA%3D%3D",
        "categoryFallbackImage": "https://plus.unsplash.com/premium_photo-1669047983472-1eeb3a5ea6a5?w=500&auto=format&fit=crop&q=60&ixlib=rb-4.1.0&ixid=M3wxMjA3fDB8MHxzZWFyY2h8MTN8fG11bmljaXBhbGl0eXxlbnwwfHwwfHx8MA%3D%3D",
        "sourceUrl": null,
        "metadata": null,
        "viewCount": 0,
        "likeCount": 0,
        "shareCount": 0,
        "createdByUserId": null,
        "sourceType": "manual",
        "externalSource": null,
        "externalId": null,
        "lastSyncedAt": null,
        "venueName": "Blues Bar",
        "address": "Blues Bar, 18 Soul Avenue",
        "website": null,
        "eventStart": "2026-07-21T19:30:00.000Z",
        "eventEnd": "2026-07-21T22:30:00.000Z",
        "isAllDay": false,
        "organizerName": "Blues Society",
        "isArchived": false,
        "notifySubscribers": false,
        "isFavorite": false,
        "isInterested": false,
        "createdAt": "2026-06-29T00:00:00.000Z",
        "updatedAt": "2026-06-29T00:00:00.000Z",
        "timeIntervals": [],
        "localities": [],
        "categories": [],
        "priceTag": null,
        "isFreeEntry": true
      },
      {
        "id": "dummy-musik-008",
        "type": "listing",
        "categorySlug": "musik",
        "subcategorySlug": "musik",
        "categoryTitle": "Musik",
        "subcategoryTitle": "Musik",
        "categoryTitleBackgroundColor": null,
        "categoryDescriptionBackgroundColor": null,
        "slug": "open-mic-night",
        "title": "Open Mic Night",
        "summary": "Take the stage or watch others perform at this popular open mic event.",
        "content": "Take the stage or watch others perform at this popular open mic event.",
        "languageCode": "en",
        "moderationStatus": "approved",
        "status": "active",
        "visibility": "public",
        "isFeatured": false,
        "isHighlighted": false,
        "heroImageUrl": "https://images.unsplash.com/photo-1462899006636-339e08d1844e?w=500&auto=format&fit=crop&q=60&ixlib=rb-4.1.0&ixid=M3wxMjA3fDB8MHxzZWFyY2h8MTJ8fHNtYXJ0JTIwY2l0eXxlbnwwfHwwfHx8MA%3D%3D",
        "categoryFallbackImage": "https://plus.unsplash.com/premium_photo-1669047983472-1eeb3a5ea6a5?w=500&auto=format&fit=crop&q=60&ixlib=rb-4.1.0&ixid=M3wxMjA3fDB8MHxzZWFyY2h8MTN8fG11bmljaXBhbGl0eXxlbnwwfHwwfHx8MA%3D%3D",
        "sourceUrl": null,
        "metadata": null,
        "viewCount": 0,
        "likeCount": 0,
        "shareCount": 0,
        "createdByUserId": null,
        "sourceType": "manual",
        "externalSource": null,
        "externalId": null,
        "lastSyncedAt": null,
        "venueName": "Cafe Stage",
        "address": "Cafe Stage, 4 Performers Lane",
        "website": null,
        "eventStart": "2026-07-23T19:00:00.000Z",
        "eventEnd": "2026-07-23T22:00:00.000Z",
        "isAllDay": false,
        "organizerName": "Open Stage Collective",
        "isArchived": false,
        "notifySubscribers": false,
        "isFavorite": false,
        "isInterested": false,
        "createdAt": "2026-06-29T00:00:00.000Z",
        "updatedAt": "2026-06-29T00:00:00.000Z",
        "timeIntervals": [],
        "localities": [],
        "categories": [],
        "priceTag": null,
        "isFreeEntry": true
      },
      {
        "id": "dummy-musik-009",
        "type": "listing",
        "categorySlug": "musik",
        "subcategorySlug": "konzert",
        "categoryTitle": "Musik",
        "subcategoryTitle": "Konzert",
        "categoryTitleBackgroundColor": null,
        "categoryDescriptionBackgroundColor": null,
        "slug": "symphony-orchestra-concert",
        "title": "Symphony Orchestra Concert",
        "summary": "An unforgettable performance by the city symphony orchestra.",
        "content": "An unforgettable performance by the city symphony orchestra.",
        "languageCode": "en",
        "moderationStatus": "approved",
        "status": "active",
        "visibility": "public",
        "isFeatured": false,
        "isHighlighted": false,
        "heroImageUrl": "https://images.unsplash.com/photo-1462899006636-339e08d1844e?w=500&auto=format&fit=crop&q=60&ixlib=rb-4.1.0&ixid=M3wxMjA3fDB8MHxzZWFyY2h8MTJ8fHNtYXJ0JTIwY2l0eXxlbnwwfHwwfHx8MA%3D%3D",
        "categoryFallbackImage": "https://plus.unsplash.com/premium_photo-1669047983472-1eeb3a5ea6a5?w=500&auto=format&fit=crop&q=60&ixlib=rb-4.1.0&ixid=M3wxMjA3fDB8MHxzZWFyY2h8MTN8fG11bmljaXBhbGl0eXxlbnwwfHwwfHx8MA%3D%3D",
        "sourceUrl": null,
        "metadata": null,
        "viewCount": 0,
        "likeCount": 0,
        "shareCount": 0,
        "createdByUserId": null,
        "sourceType": "manual",
        "externalSource": null,
        "externalId": null,
        "lastSyncedAt": null,
        "venueName": "Grand Hall",
        "address": "Grand Hall, 1 Symphony Road",
        "website": null,
        "eventStart": "2026-07-26T19:00:00.000Z",
        "eventEnd": "2026-07-26T21:30:00.000Z",
        "isAllDay": false,
        "organizerName": "Symphony Orchestra",
        "isArchived": false,
        "notifySubscribers": false,
        "isFavorite": false,
        "isInterested": false,
        "createdAt": "2026-06-29T00:00:00.000Z",
        "updatedAt": "2026-06-29T00:00:00.000Z",
        "timeIntervals": [],
        "localities": [],
        "categories": [],
        "priceTag": null,
        "isFreeEntry": true
      },
      {
        "id": "dummy-musik-010",
        "type": "listing",
        "categorySlug": "musik",
        "subcategorySlug": "konzert",
        "categoryTitle": "Musik",
        "subcategoryTitle": "Konzert",
        "categoryTitleBackgroundColor": null,
        "categoryDescriptionBackgroundColor": null,
        "slug": "guitar-festival-weekend",
        "title": "Guitar Festival Weekend",
        "summary": "A weekend dedicated to guitar music from classical to modern rock.",
        "content": "A weekend dedicated to guitar music from classical to modern rock.",
        "languageCode": "en",
        "moderationStatus": "approved",
        "status": "active",
        "visibility": "public",
        "isFeatured": false,
        "isHighlighted": false,
        "heroImageUrl": "https://images.unsplash.com/photo-1462899006636-339e08d1844e?w=500&auto=format&fit=crop&q=60&ixlib=rb-4.1.0&ixid=M3wxMjA3fDB8MHxzZWFyY2h8MTJ8fHNtYXJ0JTIwY2l0eXxlbnwwfHwwfHx8MA%3D%3D",
        "categoryFallbackImage": "https://plus.unsplash.com/premium_photo-1669047983472-1eeb3a5ea6a5?w=500&auto=format&fit=crop&q=60&ixlib=rb-4.1.0&ixid=M3wxMjA3fDB8MHxzZWFyY2h8MTN8fG11bmljaXBhbGl0eXxlbnwwfHwwfHx8MA%3D%3D",
        "sourceUrl": null,
        "metadata": null,
        "viewCount": 0,
        "likeCount": 0,
        "shareCount": 0,
        "createdByUserId": null,
        "sourceType": "manual",
        "externalSource": null,
        "externalId": null,
        "lastSyncedAt": null,
        "venueName": "Festival Ground",
        "address": "Festival Ground, Music Park",
        "website": null,
        "eventStart": "2026-07-28T12:00:00.000Z",
        "eventEnd": "2026-07-29T20:00:00.000Z",
        "isAllDay": false,
        "organizerName": "Guitar Federation",
        "isArchived": false,
        "notifySubscribers": false,
        "isFavorite": false,
        "isInterested": false,
        "createdAt": "2026-06-29T00:00:00.000Z",
        "updatedAt": "2026-06-29T00:00:00.000Z",
        "timeIntervals": [],
        "localities": [],
        "categories": [],
        "priceTag": null,
        "isFreeEntry": true
      }
    ],
    "meta": {
      "total": 1000,
      "page": 1,
      "limit": 20,
      "totalPages": 50,
      "hasNextPage": true,
      "hasPreviousPage": false
    },
    "total": 1000,
    "page": 1,
    "limit": 20,
    "totalPages": 50
  },
  "message": "Listings retrieved successfully",
  "statusCode": 200,
  "timestamp": "2026-06-29T00:00:00.000Z",
  "path": "/api/listings"
}