{
  "success": true,
  "data": {
    "items": [
      {
        "id": "dummy-kultur-001",
        "type": "listing",
        "categorySlug": "kultur",
        "subcategorySlug": "theater",
        "categoryTitle": "Kultur",
        "subcategoryTitle": "Theater",
        "categoryTitleBackgroundColor": null,
        "categoryDescriptionBackgroundColor": null,
        "slug": "theater-play-the-journey",
        "title": "Theater Play: The Journey",
        "summary": "A captivating theatrical play about the journey of self-discovery.",
        "content": "A captivating theatrical play about the journey of self-discovery.",
        "languageCode": "en",
        "moderationStatus": "approved",
        "status": "active",
        "visibility": "public",
        "isFeatured": false,
        "isHighlighted": false,
        "heroImageUrl": "https://images.unsplash.com/photo-1462899006636-339e08d1844e?w=500&auto=format&fit=crop&q=60&ixlib=rb-4.1.0&ixid=M3wxMjA3fDB8MHxzZWFyY2h8MTJ8fHNtYXJ0JTIwY2l0eXxlbnwwfHwwfHx8MA%3D%3D",
        "categoryFallbackImage": "https://plus.unsplash.com/premium_photo-1669047983472-1eeb3a5ea6a5?w=500&auto=format&fit=crop&q=60&ixlib=rb-4.1.0&ixid=M3wxMjA3fDB8MHxzZWFyY2h8MTN8fG11bmljaXBhbGl0eXxlbnwwfHwwfHx8MA%3D%3D",
        "sourceUrl": null,
        "metadata": null,
        "viewCount": 0,
        "likeCount": 0,
        "shareCount": 0,
        "createdByUserId": null,
        "sourceType": "manual",
        "externalSource": null,
        "externalId": null,
        "lastSyncedAt": null,
        "venueName": "City Theater",
        "address": "City Theater, 2 Drama Square",
        "website": null,
        "eventStart": "2026-07-07T19:00:00.000Z",
        "eventEnd": "2026-07-07T21:30:00.000Z",
        "isAllDay": false,
        "organizerName": "City Theater Company",
        "isArchived": false,
        "notifySubscribers": false,
        "isFavorite": false,
        "isInterested": false,
        "createdAt": "2026-06-29T00:00:00.000Z",
        "updatedAt": "2026-06-29T00:00:00.000Z",
        "timeIntervals": [],
        "localities": [],
        "categories": [],
        "priceTag": null,
        "isFreeEntry": true
      },
      {
        "id": "dummy-kultur-002",
        "type": "listing",
        "categorySlug": "kultur",
        "subcategorySlug": "kunst",
        "categoryTitle": "Kultur",
        "subcategoryTitle": "Kunst",
        "categoryTitleBackgroundColor": null,
        "categoryDescriptionBackgroundColor": null,
        "slug": "sculpture-garden-opening",
        "title": "Sculpture Garden Opening",
        "summary": "The opening of a new outdoor sculpture garden featuring 20 artists.",
        "content": "The opening of a new outdoor sculpture garden featuring 20 artists.",
        "languageCode": "en",
        "moderationStatus": "approved",
        "status": "active",
        "visibility": "public",
        "isFeatured": false,
        "isHighlighted": false,
        "heroImageUrl": "https://images.unsplash.com/photo-1462899006636-339e08d1844e?w=500&auto=format&fit=crop&q=60&ixlib=rb-4.1.0&ixid=M3wxMjA3fDB8MHxzZWFyY2h8MTJ8fHNtYXJ0JTIwY2l0eXxlbnwwfHwwfHx8MA%3D%3D",
        "categoryFallbackImage": "https://plus.unsplash.com/premium_photo-1669047983472-1eeb3a5ea6a5?w=500&auto=format&fit=crop&q=60&ixlib=rb-4.1.0&ixid=M3wxMjA3fDB8MHxzZWFyY2h8MTN8fG11bmljaXBhbGl0eXxlbnwwfHwwfHx8MA%3D%3D",
        "sourceUrl": null,
        "metadata": null,
        "viewCount": 0,
        "likeCount": 0,
        "shareCount": 0,
        "createdByUserId": null,
        "sourceType": "manual",
        "externalSource": null,
        "externalId": null,
        "lastSyncedAt": null,
        "venueName": "Riverside Park",
        "address": "Riverside Park, Sculpture Path",
        "website": null,
        "eventStart": "2026-07-10T11:00:00.000Z",
        "eventEnd": "2026-07-10T18:00:00.000Z",
        "isAllDay": false,
        "organizerName": "Arts Foundation",
        "isArchived": false,
        "notifySubscribers": false,
        "isFavorite": false,
        "isInterested": false,
        "createdAt": "2026-06-29T00:00:00.000Z",
        "updatedAt": "2026-06-29T00:00:00.000Z",
        "timeIntervals": [],
        "localities": [],
        "categories": [],
        "priceTag": null,
        "isFreeEntry": true
      },
      {
        "id": "dummy-kultur-003",
        "type": "listing",
        "categorySlug": "kultur",
        "subcategorySlug": "literatur",
        "categoryTitle": "Kultur",
        "subcategoryTitle": "Literatur",
        "categoryTitleBackgroundColor": null,
        "categoryDescriptionBackgroundColor": null,
        "slug": "poetry-reading-evening",
        "title": "Poetry Reading Evening",
        "summary": "A quiet evening of poetry readings by local and invited poets.",
        "content": "A quiet evening of poetry readings by local and invited poets.",
        "languageCode": "en",
        "moderationStatus": "approved",
        "status": "active",
        "visibility": "public",
        "isFeatured": false,
        "isHighlighted": false,
        "heroImageUrl": "https://images.unsplash.com/photo-1462899006636-339e08d1844e?w=500&auto=format&fit=crop&q=60&ixlib=rb-4.1.0&ixid=M3wxMjA3fDB8MHxzZWFyY2h8MTJ8fHNtYXJ0JTIwY2l0eXxlbnwwfHwwfHx8MA%3D%3D",
        "categoryFallbackImage": "https://plus.unsplash.com/premium_photo-1669047983472-1eeb3a5ea6a5?w=500&auto=format&fit=crop&q=60&ixlib=rb-4.1.0&ixid=M3wxMjA3fDB8MHxzZWFyY2h8MTN8fG11bmljaXBhbGl0eXxlbnwwfHwwfHx8MA%3D%3D",
        "sourceUrl": null,
        "metadata": null,
        "viewCount": 0,
        "likeCount": 0,
        "shareCount": 0,
        "createdByUserId": null,
        "sourceType": "manual",
        "externalSource": null,
        "externalId": null,
        "lastSyncedAt": null,
        "venueName": "Library Hall",
        "address": "Library Hall, 6 Reading Street",
        "website": null,
        "eventStart": "2026-07-13T18:30:00.000Z",
        "eventEnd": "2026-07-13T20:30:00.000Z",
        "isAllDay": false,
        "organizerName": "Literary Circle",
        "isArchived": false,
        "notifySubscribers": false,
        "isFavorite": false,
        "isInterested": false,
        "createdAt": "2026-06-29T00:00:00.000Z",
        "updatedAt": "2026-06-29T00:00:00.000Z",
        "timeIntervals": [],
        "localities": [],
        "categories": [],
        "priceTag": null,
        "isFreeEntry": true
      },
      {
        "id": "dummy-kultur-004",
        "type": "listing",
        "categorySlug": "kultur",
        "subcategorySlug": "film",
        "categoryTitle": "Kultur",
        "subcategoryTitle": "Film",
        "categoryTitleBackgroundColor": null,
        "categoryDescriptionBackgroundColor": null,
        "slug": "film-premiere-city-stories",
        "title": "Film Premiere: City Stories",
        "summary": "Premiere of a locally produced documentary about city life and culture.",
        "content": "Premiere of a locally produced documentary about city life and culture.",
        "languageCode": "en",
        "moderationStatus": "approved",
        "status": "active",
        "visibility": "public",
        "isFeatured": false,
        "isHighlighted": false,
        "heroImageUrl": "https://images.unsplash.com/photo-1462899006636-339e08d1844e?w=500&auto=format&fit=crop&q=60&ixlib=rb-4.1.0&ixid=M3wxMjA3fDB8MHxzZWFyY2h8MTJ8fHNtYXJ0JTIwY2l0eXxlbnwwfHwwfHx8MA%3D%3D",
        "categoryFallbackImage": "https://plus.unsplash.com/premium_photo-1669047983472-1eeb3a5ea6a5?w=500&auto=format&fit=crop&q=60&ixlib=rb-4.1.0&ixid=M3wxMjA3fDB8MHxzZWFyY2h8MTN8fG11bmljaXBhbGl0eXxlbnwwfHwwfHx8MA%3D%3D",
        "sourceUrl": null,
        "metadata": null,
        "viewCount": 0,
        "likeCount": 0,
        "shareCount": 0,
        "createdByUserId": null,
        "sourceType": "manual",
        "externalSource": null,
        "externalId": null,
        "lastSyncedAt": null,
        "venueName": "Cinema House",
        "address": "Cinema House, 9 Film Road",
        "website": null,
        "eventStart": "2026-07-16T20:00:00.000Z",
        "eventEnd": "2026-07-16T22:30:00.000Z",
        "isAllDay": false,
        "organizerName": "Local Film Collective",
        "isArchived": false,
        "notifySubscribers": false,
        "isFavorite": false,
        "isInterested": false,
        "createdAt": "2026-06-29T00:00:00.000Z",
        "updatedAt": "2026-06-29T00:00:00.000Z",
        "timeIntervals": [],
        "localities": [],
        "categories": [],
        "priceTag": null,
        "isFreeEntry": true
      },
      {
        "id": "dummy-kultur-005",
        "type": "listing",
        "categorySlug": "kultur",
        "subcategorySlug": "workshop",
        "categoryTitle": "Kultur",
        "subcategoryTitle": "Workshop",
        "categoryTitleBackgroundColor": null,
        "categoryDescriptionBackgroundColor": null,
        "slug": "ceramics-workshop",
        "title": "Ceramics Workshop",
        "summary": "Create your own ceramic pieces in this beginner-friendly workshop.",
        "content": "Create your own ceramic pieces in this beginner-friendly workshop.",
        "languageCode": "en",
        "moderationStatus": "approved",
        "status": "active",
        "visibility": "public",
        "isFeatured": false,
        "isHighlighted": false,
        "heroImageUrl": "https://images.unsplash.com/photo-1462899006636-339e08d1844e?w=500&auto=format&fit=crop&q=60&ixlib=rb-4.1.0&ixid=M3wxMjA3fDB8MHxzZWFyY2h8MTJ8fHNtYXJ0JTIwY2l0eXxlbnwwfHwwfHx8MA%3D%3D",
        "categoryFallbackImage": "https://plus.unsplash.com/premium_photo-1669047983472-1eeb3a5ea6a5?w=500&auto=format&fit=crop&q=60&ixlib=rb-4.1.0&ixid=M3wxMjA3fDB8MHxzZWFyY2h8MTN8fG11bmljaXBhbGl0eXxlbnwwfHwwfHx8MA%3D%3D",
        "sourceUrl": null,
        "metadata": null,
        "viewCount": 0,
        "likeCount": 0,
        "shareCount": 0,
        "createdByUserId": null,
        "sourceType": "manual",
        "externalSource": null,
        "externalId": null,
        "lastSyncedAt": null,
        "venueName": "Craft Studio",
        "address": "Craft Studio, 15 Arts Lane",
        "website": null,
        "eventStart": "2026-07-18T10:00:00.000Z",
        "eventEnd": "2026-07-18T13:00:00.000Z",
        "isAllDay": false,
        "organizerName": "Craft Center",
        "isArchived": false,
        "notifySubscribers": false,
        "isFavorite": false,
        "isInterested": false,
        "createdAt": "2026-06-29T00:00:00.000Z",
        "updatedAt": "2026-06-29T00:00:00.000Z",
        "timeIntervals": [],
        "localities": [],
        "categories": [],
        "priceTag": null,
        "isFreeEntry": true
      },
      {
        "id": "dummy-kultur-006",
        "type": "listing",
        "categorySlug": "kultur",
        "subcategorySlug": "vortrag",
        "categoryTitle": "Kultur",
        "subcategoryTitle": "Vortrag",
        "categoryTitleBackgroundColor": null,
        "categoryDescriptionBackgroundColor": null,
        "slug": "history-lecture-city-origins",
        "title": "History Lecture: City Origins",
        "summary": "An engaging lecture exploring the fascinating history of the city.",
        "content": "An engaging lecture exploring the fascinating history of the city.",
        "languageCode": "en",
        "moderationStatus": "approved",
        "status": "active",
        "visibility": "public",
        "isFeatured": false,
        "isHighlighted": false,
        "heroImageUrl": "https://images.unsplash.com/photo-1462899006636-339e08d1844e?w=500&auto=format&fit=crop&q=60&ixlib=rb-4.1.0&ixid=M3wxMjA3fDB8MHxzZWFyY2h8MTJ8fHNtYXJ0JTIwY2l0eXxlbnwwfHwwfHx8MA%3D%3D",
        "categoryFallbackImage": "https://plus.unsplash.com/premium_photo-1669047983472-1eeb3a5ea6a5?w=500&auto=format&fit=crop&q=60&ixlib=rb-4.1.0&ixid=M3wxMjA3fDB8MHxzZWFyY2h8MTN8fG11bmljaXBhbGl0eXxlbnwwfHwwfHx8MA%3D%3D",
        "sourceUrl": null,
        "metadata": null,
        "viewCount": 0,
        "likeCount": 0,
        "shareCount": 0,
        "createdByUserId": null,
        "sourceType": "manual",
        "externalSource": null,
        "externalId": null,
        "lastSyncedAt": null,
        "venueName": "Museum Lecture Hall",
        "address": "Museum Lecture Hall, Museum Square",
        "website": null,
        "eventStart": "2026-07-20T18:00:00.000Z",
        "eventEnd": "2026-07-20T20:00:00.000Z",
        "isAllDay": false,
        "organizerName": "Historical Society",
        "isArchived": false,
        "notifySubscribers": false,
        "isFavorite": false,
        "isInterested": false,
        "createdAt": "2026-06-29T00:00:00.000Z",
        "updatedAt": "2026-06-29T00:00:00.000Z",
        "timeIntervals": [],
        "localities": [],
        "categories": [],
        "priceTag": null,
        "isFreeEntry": true
      },
      {
        "id": "dummy-kultur-007",
        "type": "listing",
        "categorySlug": "kultur",
        "subcategorySlug": "theater",
        "categoryTitle": "Kultur",
        "subcategoryTitle": "Theater",
        "categoryTitleBackgroundColor": null,
        "categoryDescriptionBackgroundColor": null,
        "slug": "improv-comedy-night",
        "title": "Improv Comedy Night",
        "summary": "Laugh out loud at this hilarious improv comedy performance.",
        "content": "Laugh out loud at this hilarious improv comedy performance.",
        "languageCode": "en",
        "moderationStatus": "approved",
        "status": "active",
        "visibility": "public",
        "isFeatured": false,
        "isHighlighted": false,
        "heroImageUrl": "https://images.unsplash.com/photo-1462899006636-339e08d1844e?w=500&auto=format&fit=crop&q=60&ixlib=rb-4.1.0&ixid=M3wxMjA3fDB8MHxzZWFyY2h8MTJ8fHNtYXJ0JTIwY2l0eXxlbnwwfHwwfHx8MA%3D%3D",
        "categoryFallbackImage": "https://plus.unsplash.com/premium_photo-1669047983472-1eeb3a5ea6a5?w=500&auto=format&fit=crop&q=60&ixlib=rb-4.1.0&ixid=M3wxMjA3fDB8MHxzZWFyY2h8MTN8fG11bmljaXBhbGl0eXxlbnwwfHwwfHx8MA%3D%3D",
        "sourceUrl": null,
        "metadata": null,
        "viewCount": 0,
        "likeCount": 0,
        "shareCount": 0,
        "createdByUserId": null,
        "sourceType": "manual",
        "externalSource": null,
        "externalId": null,
        "lastSyncedAt": null,
        "venueName": "Comedy Club",
        "address": "Comedy Club, 7 Laughter Lane",
        "website": null,
        "eventStart": "2026-07-22T20:00:00.000Z",
        "eventEnd": "2026-07-22T22:00:00.000Z",
        "isAllDay": false,
        "organizerName": "Comedy Troupe",
        "isArchived": false,
        "notifySubscribers": false,
        "isFavorite": false,
        "isInterested": false,
        "createdAt": "2026-06-29T00:00:00.000Z",
        "updatedAt": "2026-06-29T00:00:00.000Z",
        "timeIntervals": [],
        "localities": [],
        "categories": [],
        "priceTag": null,
        "isFreeEntry": true
      },
      {
        "id": "dummy-kultur-008",
        "type": "listing",
        "categorySlug": "kultur",
        "subcategorySlug": "workshop",
        "categoryTitle": "Kultur",
        "subcategoryTitle": "Workshop",
        "categoryTitleBackgroundColor": null,
        "categoryDescriptionBackgroundColor": null,
        "slug": "watercolor-painting-class",
        "title": "Watercolor Painting Class",
        "summary": "Learn watercolor techniques from experienced artists.",
        "content": "Learn watercolor techniques from experienced artists.",
        "languageCode": "en",
        "moderationStatus": "approved",
        "status": "active",
        "visibility": "public",
        "isFeatured": false,
        "isHighlighted": false,
        "heroImageUrl": "https://images.unsplash.com/photo-1462899006636-339e08d1844e?w=500&auto=format&fit=crop&q=60&ixlib=rb-4.1.0&ixid=M3wxMjA3fDB8MHxzZWFyY2h8MTJ8fHNtYXJ0JTIwY2l0eXxlbnwwfHwwfHx8MA%3D%3D",
        "categoryFallbackImage": "https://plus.unsplash.com/premium_photo-1669047983472-1eeb3a5ea6a5?w=500&auto=format&fit=crop&q=60&ixlib=rb-4.1.0&ixid=M3wxMjA3fDB8MHxzZWFyY2h8MTN8fG11bmljaXBhbGl0eXxlbnwwfHwwfHx8MA%3D%3D",
        "sourceUrl": null,
        "metadata": null,
        "viewCount": 0,
        "likeCount": 0,
        "shareCount": 0,
        "createdByUserId": null,
        "sourceType": "manual",
        "externalSource": null,
        "externalId": null,
        "lastSyncedAt": null,
        "venueName": "Art Room",
        "address": "Art Room, 11 Brush Street",
        "website": null,
        "eventStart": "2026-07-24T14:00:00.000Z",
        "eventEnd": "2026-07-24T17:00:00.000Z",
        "isAllDay": false,
        "organizerName": "Art School",
        "isArchived": false,
        "notifySubscribers": false,
        "isFavorite": false,
        "isInterested": false,
        "createdAt": "2026-06-29T00:00:00.000Z",
        "updatedAt": "2026-06-29T00:00:00.000Z",
        "timeIntervals": [],
        "localities": [],
        "categories": [],
        "priceTag": null,
        "isFreeEntry": true
      },
      {
        "id": "dummy-kultur-009",
        "type": "listing",
        "categorySlug": "kultur",
        "subcategorySlug": "tanz",
        "categoryTitle": "Kultur",
        "subcategoryTitle": "Tanz",
        "categoryTitleBackgroundColor": null,
        "categoryDescriptionBackgroundColor": null,
        "slug": "dance-showcase-urban-moves",
        "title": "Dance Showcase: Urban Moves",
        "summary": "Urban and hip-hop dance crews perform their best routines.",
        "content": "Urban and hip-hop dance crews perform their best routines.",
        "languageCode": "en",
        "moderationStatus": "approved",
        "status": "active",
        "visibility": "public",
        "isFeatured": false,
        "isHighlighted": false,
        "heroImageUrl": "https://images.unsplash.com/photo-1462899006636-339e08d1844e?w=500&auto=format&fit=crop&q=60&ixlib=rb-4.1.0&ixid=M3wxMjA3fDB8MHxzZWFyY2h8MTJ8fHNtYXJ0JTIwY2l0eXxlbnwwfHwwfHx8MA%3D%3D",
        "categoryFallbackImage": "https://plus.unsplash.com/premium_photo-1669047983472-1eeb3a5ea6a5?w=500&auto=format&fit=crop&q=60&ixlib=rb-4.1.0&ixid=M3wxMjA3fDB8MHxzZWFyY2h8MTN8fG11bmljaXBhbGl0eXxlbnwwfHwwfHx8MA%3D%3D",
        "sourceUrl": null,
        "metadata": null,
        "viewCount": 0,
        "likeCount": 0,
        "shareCount": 0,
        "createdByUserId": null,
        "sourceType": "manual",
        "externalSource": null,
        "externalId": null,
        "lastSyncedAt": null,
        "venueName": "Dance Studio",
        "address": "Dance Studio, 20 Rhythm Road",
        "website": null,
        "eventStart": "2026-07-26T18:00:00.000Z",
        "eventEnd": "2026-07-26T20:30:00.000Z",
        "isAllDay": false,
        "organizerName": "Urban Dance Academy",
        "isArchived": false,
        "notifySubscribers": false,
        "isFavorite": false,
        "isInterested": false,
        "createdAt": "2026-06-29T00:00:00.000Z",
        "updatedAt": "2026-06-29T00:00:00.000Z",
        "timeIntervals": [],
        "localities": [],
        "categories": [],
        "priceTag": null,
        "isFreeEntry": true
      },
      {
        "id": "dummy-kultur-010",
        "type": "listing",
        "categorySlug": "kultur",
        "subcategorySlug": "literatur",
        "categoryTitle": "Kultur",
        "subcategoryTitle": "Literatur",
        "categoryTitleBackgroundColor": null,
        "categoryDescriptionBackgroundColor": null,
        "slug": "literary-festival-opening",
        "title": "Literary Festival Opening",
        "summary": "The opening ceremony of the annual city literary festival.",
        "content": "The opening ceremony of the annual city literary festival.",
        "languageCode": "en",
        "moderationStatus": "approved",
        "status": "active",
        "visibility": "public",
        "isFeatured": false,
        "isHighlighted": false,
        "heroImageUrl": "https://images.unsplash.com/photo-1462899006636-339e08d1844e?w=500&auto=format&fit=crop&q=60&ixlib=rb-4.1.0&ixid=M3wxMjA3fDB8MHxzZWFyY2h8MTJ8fHNtYXJ0JTIwY2l0eXxlbnwwfHwwfHx8MA%3D%3D",
        "categoryFallbackImage": "https://plus.unsplash.com/premium_photo-1669047983472-1eeb3a5ea6a5?w=500&auto=format&fit=crop&q=60&ixlib=rb-4.1.0&ixid=M3wxMjA3fDB8MHxzZWFyY2h8MTN8fG11bmljaXBhbGl0eXxlbnwwfHwwfHx8MA%3D%3D",
        "sourceUrl": null,
        "metadata": null,
        "viewCount": 0,
        "likeCount": 0,
        "shareCount": 0,
        "createdByUserId": null,
        "sourceType": "manual",
        "externalSource": null,
        "externalId": null,
        "lastSyncedAt": null,
        "venueName": "Town Hall",
        "address": "Town Hall, Central Square",
        "website": null,
        "eventStart": "2026-07-28T10:00:00.000Z",
        "eventEnd": "2026-07-28T18:00:00.000Z",
        "isAllDay": false,
        "organizerName": "Festival Organization",
        "isArchived": false,
        "notifySubscribers": false,
        "isFavorite": false,
        "isInterested": false,
        "createdAt": "2026-06-29T00:00:00.000Z",
        "updatedAt": "2026-06-29T00:00:00.000Z",
        "timeIntervals": [],
        "localities": [],
        "categories": [],
        "priceTag": null,
        "isFreeEntry": true
      }
    ],
    "meta": {
      "total": 1000,
      "page": 1,
      "limit": 20,
      "totalPages": 50,
      "hasNextPage": true,
      "hasPreviousPage": false
    },
    "total": 1000,
    "page": 1,
    "limit": 20,
    "totalPages": 50
  },
  "message": "Listings retrieved successfully",
  "statusCode": 200,
  "timestamp": "2026-06-29T00:00:00.000Z",
  "path": "/api/listings"
}