{
  "success": true,
  "data": {
    "items": [
      {
        "id": "dummy-kultur-created-001",
        "type": "listing",
        "categorySlug": "kultur",
        "subcategorySlug": "literatur",
        "categoryTitle": "Kultur",
        "subcategoryTitle": "Literatur",
        "categoryTitleBackgroundColor": null,
        "categoryDescriptionBackgroundColor": null,
        "slug": "spoken-word-evening",
        "title": "Spoken Word Evening",
        "summary": "An expressive spoken word performance night at the arts center.",
        "content": "An expressive spoken word performance night at the arts center.",
        "languageCode": "en",
        "moderationStatus": "approved",
        "status": "active",
        "visibility": "public",
        "isFeatured": false,
        "isHighlighted": false,
        "heroImageUrl": null,
        "categoryFallbackImage": null,
        "sourceUrl": null,
        "metadata": null,
        "viewCount": 0,
        "likeCount": 0,
        "shareCount": 0,
        "createdByUserId": null,
        "sourceType": "manual",
        "externalSource": null,
        "externalId": null,
        "lastSyncedAt": null,
        "venueName": "Arts Center",
        "address": "Arts Center, 3 Expression Street",
        "website": null,
        "eventStart": "2026-06-30T19:00:00.000Z",
        "eventEnd": "2026-06-30T21:30:00.000Z",
        "isAllDay": false,
        "organizerName": "Spoken Word Collective",
        "isArchived": false,
        "notifySubscribers": false,
        "isFavorite": false,
        "isInterested": false,
        "createdAt": "2026-06-29T00:00:00.000Z",
        "updatedAt": "2026-06-29T00:00:00.000Z",
        "timeIntervals": [],
        "localities": [],
        "categories": [],
        "priceTag": null,
        "isFreeEntry": true
      },
      {
        "id": "dummy-kultur-created-002",
        "type": "listing",
        "categorySlug": "kultur",
        "subcategorySlug": "kunst",
        "categoryTitle": "Kultur",
        "subcategoryTitle": "Kunst",
        "categoryTitleBackgroundColor": null,
        "categoryDescriptionBackgroundColor": null,
        "slug": "street-art-guided-tour",
        "title": "Street Art Guided Tour",
        "summary": "Explore the city's vibrant street art scene with an expert guide.",
        "content": "Explore the city's vibrant street art scene with an expert guide.",
        "languageCode": "en",
        "moderationStatus": "approved",
        "status": "active",
        "visibility": "public",
        "isFeatured": false,
        "isHighlighted": false,
        "heroImageUrl": null,
        "categoryFallbackImage": null,
        "sourceUrl": null,
        "metadata": null,
        "viewCount": 0,
        "likeCount": 0,
        "shareCount": 0,
        "createdByUserId": null,
        "sourceType": "manual",
        "externalSource": null,
        "externalId": null,
        "lastSyncedAt": null,
        "venueName": "Starting Point: Main Square",
        "address": "Starting Point: Main Square",
        "website": null,
        "eventStart": "2026-07-01T14:00:00.000Z",
        "eventEnd": "2026-07-01T16:30:00.000Z",
        "isAllDay": false,
        "organizerName": "Urban Art Society",
        "isArchived": false,
        "notifySubscribers": false,
        "isFavorite": false,
        "isInterested": false,
        "createdAt": "2026-06-29T00:00:00.000Z",
        "updatedAt": "2026-06-29T00:00:00.000Z",
        "timeIntervals": [],
        "localities": [],
        "categories": [],
        "priceTag": null,
        "isFreeEntry": true
      },
      {
        "id": "dummy-kultur-created-003",
        "type": "listing",
        "categorySlug": "kultur",
        "subcategorySlug": "theater",
        "categoryTitle": "Kultur",
        "subcategoryTitle": "Theater",
        "categoryTitleBackgroundColor": null,
        "categoryDescriptionBackgroundColor": null,
        "slug": "cabaret-night-tales-songs",
        "title": "Cabaret Night: Tales & Songs",
        "summary": "An enchanting evening of cabaret with storytelling and live music.",
        "content": "An enchanting evening of cabaret with storytelling and live music.",
        "languageCode": "en",
        "moderationStatus": "approved",
        "status": "active",
        "visibility": "public",
        "isFeatured": false,
        "isHighlighted": false,
        "heroImageUrl": null,
        "categoryFallbackImage": null,
        "sourceUrl": null,
        "metadata": null,
        "viewCount": 0,
        "likeCount": 0,
        "shareCount": 0,
        "createdByUserId": null,
        "sourceType": "manual",
        "externalSource": null,
        "externalId": null,
        "lastSyncedAt": null,
        "venueName": "Cabaret Hall",
        "address": "Cabaret Hall, 25 Entertainment Ave",
        "website": null,
        "eventStart": "2026-07-02T19:30:00.000Z",
        "eventEnd": "2026-07-02T22:00:00.000Z",
        "isAllDay": false,
        "organizerName": "Cabaret Company",
        "isArchived": false,
        "notifySubscribers": false,
        "isFavorite": false,
        "isInterested": false,
        "createdAt": "2026-06-29T00:00:00.000Z",
        "updatedAt": "2026-06-29T00:00:00.000Z",
        "timeIntervals": [],
        "localities": [],
        "categories": [],
        "priceTag": null,
        "isFreeEntry": true
      },
      {
        "id": "dummy-kultur-created-004",
        "type": "listing",
        "categorySlug": "kultur",
        "subcategorySlug": "fuehrung",
        "categoryTitle": "Kultur",
        "subcategoryTitle": "Fuehrung",
        "categoryTitleBackgroundColor": null,
        "categoryDescriptionBackgroundColor": null,
        "slug": "architecture-walk-modern-city",
        "title": "Architecture Walk: Modern City",
        "summary": "Discover the best of modern architecture on this guided city walk.",
        "content": "Discover the best of modern architecture on this guided city walk.",
        "languageCode": "en",
        "moderationStatus": "approved",
        "status": "active",
        "visibility": "public",
        "isFeatured": false,
        "isHighlighted": false,
        "heroImageUrl": null,
        "categoryFallbackImage": null,
        "sourceUrl": null,
        "metadata": null,
        "viewCount": 0,
        "likeCount": 0,
        "shareCount": 0,
        "createdByUserId": null,
        "sourceType": "manual",
        "externalSource": null,
        "externalId": null,
        "lastSyncedAt": null,
        "venueName": "Meeting Point: City Library",
        "address": "Meeting Point: City Library",
        "website": null,
        "eventStart": "2026-07-03T10:00:00.000Z",
        "eventEnd": "2026-07-03T12:30:00.000Z",
        "isAllDay": false,
        "organizerName": "Architecture Club",
        "isArchived": false,
        "notifySubscribers": false,
        "isFavorite": false,
        "isInterested": false,
        "createdAt": "2026-06-29T00:00:00.000Z",
        "updatedAt": "2026-06-29T00:00:00.000Z",
        "timeIntervals": [],
        "localities": [],
        "categories": [],
        "priceTag": null,
        "isFreeEntry": true
      },
      {
        "id": "dummy-kultur-created-005",
        "type": "listing",
        "categorySlug": "kultur",
        "subcategorySlug": "film",
        "categoryTitle": "Kultur",
        "subcategoryTitle": "Film",
        "categoryTitleBackgroundColor": null,
        "categoryDescriptionBackgroundColor": null,
        "slug": "short-film-screening",
        "title": "Short Film Screening",
        "summary": "A curated selection of award-winning short films from local filmmakers.",
        "content": "A curated selection of award-winning short films from local filmmakers.",
        "languageCode": "en",
        "moderationStatus": "approved",
        "status": "active",
        "visibility": "public",
        "isFeatured": false,
        "isHighlighted": false,
        "heroImageUrl": null,
        "categoryFallbackImage": null,
        "sourceUrl": null,
        "metadata": null,
        "viewCount": 0,
        "likeCount": 0,
        "shareCount": 0,
        "createdByUserId": null,
        "sourceType": "manual",
        "externalSource": null,
        "externalId": null,
        "lastSyncedAt": null,
        "venueName": "Art Cinema",
        "address": "Art Cinema, 12 Film Square",
        "website": null,
        "eventStart": "2026-07-04T18:00:00.000Z",
        "eventEnd": "2026-07-04T21:00:00.000Z",
        "isAllDay": false,
        "organizerName": "Film Society",
        "isArchived": false,
        "notifySubscribers": false,
        "isFavorite": false,
        "isInterested": false,
        "createdAt": "2026-06-29T00:00:00.000Z",
        "updatedAt": "2026-06-29T00:00:00.000Z",
        "timeIntervals": [],
        "localities": [],
        "categories": [],
        "priceTag": null,
        "isFreeEntry": true
      },
      {
        "id": "dummy-kultur-created-006",
        "type": "listing",
        "categorySlug": "kultur",
        "subcategorySlug": "workshop",
        "categoryTitle": "Kultur",
        "subcategoryTitle": "Workshop",
        "categoryTitleBackgroundColor": null,
        "categoryDescriptionBackgroundColor": null,
        "slug": "printmaking-workshop",
        "title": "Printmaking Workshop",
        "summary": "Hands-on printmaking workshop for beginners and enthusiasts.",
        "content": "Hands-on printmaking workshop for beginners and enthusiasts.",
        "languageCode": "en",
        "moderationStatus": "approved",
        "status": "active",
        "visibility": "public",
        "isFeatured": false,
        "isHighlighted": false,
        "heroImageUrl": null,
        "categoryFallbackImage": null,
        "sourceUrl": null,
        "metadata": null,
        "viewCount": 0,
        "likeCount": 0,
        "shareCount": 0,
        "createdByUserId": null,
        "sourceType": "manual",
        "externalSource": null,
        "externalId": null,
        "lastSyncedAt": null,
        "venueName": "Print Studio",
        "address": "Print Studio, 8 Craft Road",
        "website": null,
        "eventStart": "2026-07-05T11:00:00.000Z",
        "eventEnd": "2026-07-05T14:00:00.000Z",
        "isAllDay": false,
        "organizerName": "Printmakers Guild",
        "isArchived": false,
        "notifySubscribers": false,
        "isFavorite": false,
        "isInterested": false,
        "createdAt": "2026-06-29T00:00:00.000Z",
        "updatedAt": "2026-06-29T00:00:00.000Z",
        "timeIntervals": [],
        "localities": [],
        "categories": [],
        "priceTag": null,
        "isFreeEntry": true
      },
      {
        "id": "dummy-kultur-created-007",
        "type": "listing",
        "categorySlug": "kultur",
        "subcategorySlug": "literatur",
        "categoryTitle": "Kultur",
        "subcategoryTitle": "Literatur",
        "categoryTitleBackgroundColor": null,
        "categoryDescriptionBackgroundColor": null,
        "slug": "book-club-summer-reads",
        "title": "Book Club: Summer Reads",
        "summary": "Join the monthly book club to discuss this month's selected novel.",
        "content": "Join the monthly book club to discuss this month's selected novel.",
        "languageCode": "en",
        "moderationStatus": "approved",
        "status": "active",
        "visibility": "public",
        "isFeatured": false,
        "isHighlighted": false,
        "heroImageUrl": null,
        "categoryFallbackImage": null,
        "sourceUrl": null,
        "metadata": null,
        "viewCount": 0,
        "likeCount": 0,
        "shareCount": 0,
        "createdByUserId": null,
        "sourceType": "manual",
        "externalSource": null,
        "externalId": null,
        "lastSyncedAt": null,
        "venueName": "Public Library",
        "address": "Public Library, Reading Room 2",
        "website": null,
        "eventStart": "2026-07-06T17:00:00.000Z",
        "eventEnd": "2026-07-06T19:00:00.000Z",
        "isAllDay": false,
        "organizerName": "City Book Club",
        "isArchived": false,
        "notifySubscribers": false,
        "isFavorite": false,
        "isInterested": false,
        "createdAt": "2026-06-29T00:00:00.000Z",
        "updatedAt": "2026-06-29T00:00:00.000Z",
        "timeIntervals": [],
        "localities": [],
        "categories": [],
        "priceTag": null,
        "isFreeEntry": true
      },
      {
        "id": "dummy-kultur-created-008",
        "type": "listing",
        "categorySlug": "kultur",
        "subcategorySlug": "tanz",
        "categoryTitle": "Kultur",
        "subcategoryTitle": "Tanz",
        "categoryTitleBackgroundColor": null,
        "categoryDescriptionBackgroundColor": null,
        "slug": "folk-dance-performance",
        "title": "Folk Dance Performance",
        "summary": "Traditional folk dances performed by the regional dance ensemble.",
        "content": "Traditional folk dances performed by the regional dance ensemble.",
        "languageCode": "en",
        "moderationStatus": "approved",
        "status": "active",
        "visibility": "public",
        "isFeatured": false,
        "isHighlighted": false,
        "heroImageUrl": null,
        "categoryFallbackImage": null,
        "sourceUrl": null,
        "metadata": null,
        "viewCount": 0,
        "likeCount": 0,
        "shareCount": 0,
        "createdByUserId": null,
        "sourceType": "manual",
        "externalSource": null,
        "externalId": null,
        "lastSyncedAt": null,
        "venueName": "Open Air Stage",
        "address": "Open Air Stage, City Park",
        "website": null,
        "eventStart": "2026-07-07T17:00:00.000Z",
        "eventEnd": "2026-07-07T19:30:00.000Z",
        "isAllDay": false,
        "organizerName": "Folk Dance Ensemble",
        "isArchived": false,
        "notifySubscribers": false,
        "isFavorite": false,
        "isInterested": false,
        "createdAt": "2026-06-29T00:00:00.000Z",
        "updatedAt": "2026-06-29T00:00:00.000Z",
        "timeIntervals": [],
        "localities": [],
        "categories": [],
        "priceTag": null,
        "isFreeEntry": true
      },
      {
        "id": "dummy-kultur-created-009",
        "type": "listing",
        "categorySlug": "kultur",
        "subcategorySlug": "familie",
        "categoryTitle": "Kultur",
        "subcategoryTitle": "Familie",
        "categoryTitleBackgroundColor": null,
        "categoryDescriptionBackgroundColor": null,
        "slug": "storytelling-for-all-ages",
        "title": "Storytelling for All Ages",
        "summary": "An interactive storytelling session for children and families.",
        "content": "An interactive storytelling session for children and families.",
        "languageCode": "en",
        "moderationStatus": "approved",
        "status": "active",
        "visibility": "public",
        "isFeatured": false,
        "isHighlighted": false,
        "heroImageUrl": null,
        "categoryFallbackImage": null,
        "sourceUrl": null,
        "metadata": null,
        "viewCount": 0,
        "likeCount": 0,
        "shareCount": 0,
        "createdByUserId": null,
        "sourceType": "manual",
        "externalSource": null,
        "externalId": null,
        "lastSyncedAt": null,
        "venueName": "Community Hall",
        "address": "Community Hall, Neighborhood Center",
        "website": null,
        "eventStart": "2026-07-08T15:00:00.000Z",
        "eventEnd": "2026-07-08T17:00:00.000Z",
        "isAllDay": false,
        "organizerName": "Storytellers Club",
        "isArchived": false,
        "notifySubscribers": false,
        "isFavorite": false,
        "isInterested": false,
        "createdAt": "2026-06-29T00:00:00.000Z",
        "updatedAt": "2026-06-29T00:00:00.000Z",
        "timeIntervals": [],
        "localities": [],
        "categories": [],
        "priceTag": null,
        "isFreeEntry": true
      },
      {
        "id": "dummy-kultur-created-010",
        "type": "listing",
        "categorySlug": "kultur",
        "subcategorySlug": "kultur",
        "categoryTitle": "Kultur",
        "subcategoryTitle": "Kultur",
        "categoryTitleBackgroundColor": null,
        "categoryDescriptionBackgroundColor": null,
        "slug": "cultural-exchange-evening",
        "title": "Cultural Exchange Evening",
        "summary": "Meet people from different backgrounds and share cultural experiences.",
        "content": "Meet people from different backgrounds and share cultural experiences.",
        "languageCode": "en",
        "moderationStatus": "approved",
        "status": "active",
        "visibility": "public",
        "isFeatured": false,
        "isHighlighted": false,
        "heroImageUrl": null,
        "categoryFallbackImage": null,
        "sourceUrl": null,
        "metadata": null,
        "viewCount": 0,
        "likeCount": 0,
        "shareCount": 0,
        "createdByUserId": null,
        "sourceType": "manual",
        "externalSource": null,
        "externalId": null,
        "lastSyncedAt": null,
        "venueName": "International Center",
        "address": "International Center, 30 Unity Road",
        "website": null,
        "eventStart": "2026-07-09T18:00:00.000Z",
        "eventEnd": "2026-07-09T21:00:00.000Z",
        "isAllDay": false,
        "organizerName": "Intercultural Forum",
        "isArchived": false,
        "notifySubscribers": false,
        "isFavorite": false,
        "isInterested": false,
        "createdAt": "2026-06-29T00:00:00.000Z",
        "updatedAt": "2026-06-29T00:00:00.000Z",
        "timeIntervals": [],
        "localities": [],
        "categories": [],
        "priceTag": null,
        "isFreeEntry": true
      }
    ],
    "meta": {
      "total": 1000,
      "page": 1,
      "limit": 20,
      "totalPages": 50,
      "hasNextPage": true,
      "hasPreviousPage": false
    },
    "total": 1000,
    "page": 1,
    "limit": 20,
    "totalPages": 50
  },
  "message": "Listings retrieved successfully",
  "statusCode": 200,
  "timestamp": "2026-06-29T00:00:00.000Z",
  "path": "/api/listings"
}