{
  "success": true,
  "data": {
    "items": [
      {
        "id": "dummy-search-001",
        "type": "listing",
        "categorySlug": "musik",
        "subcategorySlug": "konzert",
        "categoryTitle": "Musik",
        "subcategoryTitle": "Konzert",
        "categoryTitleBackgroundColor": null,
        "categoryDescriptionBackgroundColor": null,
        "slug": "summer-rock-concert",
        "title": "Summer Rock Concert",
        "summary": "An energetic rock concert with local and regional bands.",
        "content": "An energetic rock concert with local and regional bands.",
        "languageCode": "en",
        "moderationStatus": "approved",
        "status": "active",
        "visibility": "public",
        "isFeatured": false,
        "isHighlighted": false,
        "heroImageUrl": null,
        "categoryFallbackImage": null,
        "sourceUrl": null,
        "metadata": null,
        "viewCount": 0,
        "likeCount": 0,
        "shareCount": 0,
        "createdByUserId": null,
        "sourceType": "manual",
        "externalSource": null,
        "externalId": null,
        "lastSyncedAt": null,
        "venueName": "Open Air Stage",
        "address": "Open Air Stage, City Park",
        "website": null,
        "eventStart": "2026-07-10T20:00:00.000Z",
        "eventEnd": "2026-07-10T23:00:00.000Z",
        "isAllDay": false,
        "organizerName": "Rock Events Org",
        "isArchived": false,
        "notifySubscribers": false,
        "isFavorite": false,
        "isInterested": false,
        "createdAt": "2026-06-29T00:00:00.000Z",
        "updatedAt": "2026-06-29T00:00:00.000Z",
        "timeIntervals": [],
        "localities": [],
        "categories": [],
        "priceTag": null,
        "isFreeEntry": true
      },
      {
        "id": "dummy-search-002",
        "type": "listing",
        "categorySlug": "kultur",
        "subcategorySlug": "kunst",
        "categoryTitle": "Kultur",
        "subcategoryTitle": "Kunst",
        "categoryTitleBackgroundColor": null,
        "categoryDescriptionBackgroundColor": null,
        "slug": "art-culture-fair",
        "title": "Art & Culture Fair",
        "summary": "Explore a wide variety of art and culture at the city fair.",
        "content": "Explore a wide variety of art and culture at the city fair.",
        "languageCode": "en",
        "moderationStatus": "approved",
        "status": "active",
        "visibility": "public",
        "isFeatured": false,
        "isHighlighted": false,
        "heroImageUrl": null,
        "categoryFallbackImage": null,
        "sourceUrl": null,
        "metadata": null,
        "viewCount": 0,
        "likeCount": 0,
        "shareCount": 0,
        "createdByUserId": null,
        "sourceType": "manual",
        "externalSource": null,
        "externalId": null,
        "lastSyncedAt": null,
        "venueName": "Exhibition Hall",
        "address": "Exhibition Hall, 5 Fair Road",
        "website": null,
        "eventStart": "2026-07-12T10:00:00.000Z",
        "eventEnd": "2026-07-12T18:00:00.000Z",
        "isAllDay": false,
        "organizerName": "City Events",
        "isArchived": false,
        "notifySubscribers": false,
        "isFavorite": false,
        "isInterested": false,
        "createdAt": "2026-06-29T00:00:00.000Z",
        "updatedAt": "2026-06-29T00:00:00.000Z",
        "timeIntervals": [],
        "localities": [],
        "categories": [],
        "priceTag": null,
        "isFreeEntry": true
      },
      {
        "id": "dummy-search-003",
        "type": "listing",
        "categorySlug": "musik",
        "subcategorySlug": "konzert",
        "categoryTitle": "Musik",
        "subcategoryTitle": "Konzert",
        "categoryTitleBackgroundColor": null,
        "categoryDescriptionBackgroundColor": null,
        "slug": "evening-jazz-concert",
        "title": "Evening Jazz Concert",
        "summary": "Smooth jazz tunes in a cozy venue for music lovers.",
        "content": "Smooth jazz tunes in a cozy venue for music lovers.",
        "languageCode": "en",
        "moderationStatus": "approved",
        "status": "active",
        "visibility": "public",
        "isFeatured": false,
        "isHighlighted": false,
        "heroImageUrl": null,
        "categoryFallbackImage": null,
        "sourceUrl": null,
        "metadata": null,
        "viewCount": 0,
        "likeCount": 0,
        "shareCount": 0,
        "createdByUserId": null,
        "sourceType": "manual",
        "externalSource": null,
        "externalId": null,
        "lastSyncedAt": null,
        "venueName": "Jazz Bar",
        "address": "Jazz Bar, 18 Music Lane",
        "website": null,
        "eventStart": "2026-07-15T19:00:00.000Z",
        "eventEnd": "2026-07-15T22:00:00.000Z",
        "isAllDay": false,
        "organizerName": "Jazz Collective",
        "isArchived": false,
        "notifySubscribers": false,
        "isFavorite": false,
        "isInterested": false,
        "createdAt": "2026-06-29T00:00:00.000Z",
        "updatedAt": "2026-06-29T00:00:00.000Z",
        "timeIntervals": [],
        "localities": [],
        "categories": [],
        "priceTag": null,
        "isFreeEntry": true
      },
      {
        "id": "dummy-search-004",
        "type": "listing",
        "categorySlug": "kultur",
        "subcategorySlug": "workshop",
        "categoryTitle": "Kultur",
        "subcategoryTitle": "Workshop",
        "categoryTitleBackgroundColor": null,
        "categoryDescriptionBackgroundColor": null,
        "slug": "city-photography-walk",
        "title": "City Photography Walk",
        "summary": "Capture the city's beauty on this guided photography walk.",
        "content": "Capture the city's beauty on this guided photography walk.",
        "languageCode": "en",
        "moderationStatus": "approved",
        "status": "active",
        "visibility": "public",
        "isFeatured": false,
        "isHighlighted": false,
        "heroImageUrl": null,
        "categoryFallbackImage": null,
        "sourceUrl": null,
        "metadata": null,
        "viewCount": 0,
        "likeCount": 0,
        "shareCount": 0,
        "createdByUserId": null,
        "sourceType": "manual",
        "externalSource": null,
        "externalId": null,
        "lastSyncedAt": null,
        "venueName": "Meeting Point: Central Station",
        "address": "Meeting Point: Central Station",
        "website": null,
        "eventStart": "2026-07-17T09:00:00.000Z",
        "eventEnd": "2026-07-17T12:00:00.000Z",
        "isAllDay": false,
        "organizerName": "Photo Club",
        "isArchived": false,
        "notifySubscribers": false,
        "isFavorite": false,
        "isInterested": false,
        "createdAt": "2026-06-29T00:00:00.000Z",
        "updatedAt": "2026-06-29T00:00:00.000Z",
        "timeIntervals": [],
        "localities": [],
        "categories": [],
        "priceTag": null,
        "isFreeEntry": true
      },
      {
        "id": "dummy-search-005",
        "type": "listing",
        "categorySlug": "kultur",
        "subcategorySlug": "theater",
        "categoryTitle": "Kultur",
        "subcategoryTitle": "Theater",
        "categoryTitleBackgroundColor": null,
        "categoryDescriptionBackgroundColor": null,
        "slug": "kids-theater-show",
        "title": "Kids Theater Show",
        "summary": "A fun and interactive theater show for children and families.",
        "content": "A fun and interactive theater show for children and families.",
        "languageCode": "en",
        "moderationStatus": "approved",
        "status": "active",
        "visibility": "public",
        "isFeatured": false,
        "isHighlighted": false,
        "heroImageUrl": null,
        "categoryFallbackImage": null,
        "sourceUrl": null,
        "metadata": null,
        "viewCount": 0,
        "likeCount": 0,
        "shareCount": 0,
        "createdByUserId": null,
        "sourceType": "manual",
        "externalSource": null,
        "externalId": null,
        "lastSyncedAt": null,
        "venueName": "Community Theater",
        "address": "Community Theater, 3 Kids Lane",
        "website": null,
        "eventStart": "2026-07-19T15:00:00.000Z",
        "eventEnd": "2026-07-19T17:00:00.000Z",
        "isAllDay": false,
        "organizerName": "Family Theater",
        "isArchived": false,
        "notifySubscribers": false,
        "isFavorite": false,
        "isInterested": false,
        "createdAt": "2026-06-29T00:00:00.000Z",
        "updatedAt": "2026-06-29T00:00:00.000Z",
        "timeIntervals": [],
        "localities": [],
        "categories": [],
        "priceTag": null,
        "isFreeEntry": true
      },
      {
        "id": "dummy-search-006",
        "type": "listing",
        "categorySlug": "sonstiges",
        "subcategorySlug": "sonstiges",
        "categoryTitle": "Sonstiges",
        "subcategoryTitle": "Sonstiges",
        "categoryTitleBackgroundColor": null,
        "categoryDescriptionBackgroundColor": null,
        "slug": "outdoor-fitness-bootcamp",
        "title": "Outdoor Fitness Bootcamp",
        "summary": "Join a free outdoor fitness bootcamp in the city park.",
        "content": "Join a free outdoor fitness bootcamp in the city park.",
        "languageCode": "en",
        "moderationStatus": "approved",
        "status": "active",
        "visibility": "public",
        "isFeatured": false,
        "isHighlighted": false,
        "heroImageUrl": null,
        "categoryFallbackImage": null,
        "sourceUrl": null,
        "metadata": null,
        "viewCount": 0,
        "likeCount": 0,
        "shareCount": 0,
        "createdByUserId": null,
        "sourceType": "manual",
        "externalSource": null,
        "externalId": null,
        "lastSyncedAt": null,
        "venueName": "City Park",
        "address": "City Park, East Entrance",
        "website": null,
        "eventStart": "2026-07-21T07:00:00.000Z",
        "eventEnd": "2026-07-21T09:00:00.000Z",
        "isAllDay": false,
        "organizerName": "Fitness Community",
        "isArchived": false,
        "notifySubscribers": false,
        "isFavorite": false,
        "isInterested": false,
        "createdAt": "2026-06-29T00:00:00.000Z",
        "updatedAt": "2026-06-29T00:00:00.000Z",
        "timeIntervals": [],
        "localities": [],
        "categories": [],
        "priceTag": null,
        "isFreeEntry": true
      },
      {
        "id": "dummy-search-007",
        "type": "listing",
        "categorySlug": "sonstiges",
        "subcategorySlug": "sonstiges",
        "categoryTitle": "Sonstiges",
        "subcategoryTitle": "Sonstiges",
        "categoryTitleBackgroundColor": null,
        "categoryDescriptionBackgroundColor": null,
        "slug": "pop-up-market",
        "title": "Pop-Up Market",
        "summary": "Browse unique handmade goods and local products at the pop-up market.",
        "content": "Browse unique handmade goods and local products at the pop-up market.",
        "languageCode": "en",
        "moderationStatus": "approved",
        "status": "active",
        "visibility": "public",
        "isFeatured": false,
        "isHighlighted": false,
        "heroImageUrl": null,
        "categoryFallbackImage": null,
        "sourceUrl": null,
        "metadata": null,
        "viewCount": 0,
        "likeCount": 0,
        "shareCount": 0,
        "createdByUserId": null,
        "sourceType": "manual",
        "externalSource": null,
        "externalId": null,
        "lastSyncedAt": null,
        "venueName": "Town Square",
        "address": "Town Square, Market Area",
        "website": null,
        "eventStart": "2026-07-24T10:00:00.000Z",
        "eventEnd": "2026-07-24T16:00:00.000Z",
        "isAllDay": false,
        "organizerName": "Local Vendors",
        "isArchived": false,
        "notifySubscribers": false,
        "isFavorite": false,
        "isInterested": false,
        "createdAt": "2026-06-29T00:00:00.000Z",
        "updatedAt": "2026-06-29T00:00:00.000Z",
        "timeIntervals": [],
        "localities": [],
        "categories": [],
        "priceTag": null,
        "isFreeEntry": true
      },
      {
        "id": "dummy-search-008",
        "type": "listing",
        "categorySlug": "musik",
        "subcategorySlug": "musik",
        "categoryTitle": "Musik",
        "subcategoryTitle": "Musik",
        "categoryTitleBackgroundColor": null,
        "categoryDescriptionBackgroundColor": null,
        "slug": "open-stage-night",
        "title": "Open Stage Night",
        "summary": "Sing, play, or perform — all are welcome at this open stage event.",
        "content": "Sing, play, or perform — all are welcome at this open stage event.",
        "languageCode": "en",
        "moderationStatus": "approved",
        "status": "active",
        "visibility": "public",
        "isFeatured": false,
        "isHighlighted": false,
        "heroImageUrl": null,
        "categoryFallbackImage": null,
        "sourceUrl": null,
        "metadata": null,
        "viewCount": 0,
        "likeCount": 0,
        "shareCount": 0,
        "createdByUserId": null,
        "sourceType": "manual",
        "externalSource": null,
        "externalId": null,
        "lastSyncedAt": null,
        "venueName": "Cultural Center",
        "address": "Cultural Center, Main Hall",
        "website": null,
        "eventStart": "2026-07-26T19:00:00.000Z",
        "eventEnd": "2026-07-26T22:30:00.000Z",
        "isAllDay": false,
        "organizerName": "Open Stage Society",
        "isArchived": false,
        "notifySubscribers": false,
        "isFavorite": false,
        "isInterested": false,
        "createdAt": "2026-06-29T00:00:00.000Z",
        "updatedAt": "2026-06-29T00:00:00.000Z",
        "timeIntervals": [],
        "localities": [],
        "categories": [],
        "priceTag": null,
        "isFreeEntry": true
      },
      {
        "id": "dummy-search-009",
        "type": "listing",
        "categorySlug": "sonstiges",
        "subcategorySlug": "sonstiges",
        "categoryTitle": "Sonstiges",
        "subcategoryTitle": "Sonstiges",
        "categoryTitleBackgroundColor": null,
        "categoryDescriptionBackgroundColor": null,
        "slug": "nature-guided-tour",
        "title": "Nature Guided Tour",
        "summary": "Discover the local nature and wildlife on this relaxing guided tour.",
        "content": "Discover the local nature and wildlife on this relaxing guided tour.",
        "languageCode": "en",
        "moderationStatus": "approved",
        "status": "active",
        "visibility": "public",
        "isFeatured": false,
        "isHighlighted": false,
        "heroImageUrl": null,
        "categoryFallbackImage": null,
        "sourceUrl": null,
        "metadata": null,
        "viewCount": 0,
        "likeCount": 0,
        "shareCount": 0,
        "createdByUserId": null,
        "sourceType": "manual",
        "externalSource": null,
        "externalId": null,
        "lastSyncedAt": null,
        "venueName": "Nature Reserve",
        "address": "Nature Reserve, Park Entrance",
        "website": null,
        "eventStart": "2026-07-28T10:00:00.000Z",
        "eventEnd": "2026-07-28T13:00:00.000Z",
        "isAllDay": false,
        "organizerName": "Nature Friends",
        "isArchived": false,
        "notifySubscribers": false,
        "isFavorite": false,
        "isInterested": false,
        "createdAt": "2026-06-29T00:00:00.000Z",
        "updatedAt": "2026-06-29T00:00:00.000Z",
        "timeIntervals": [],
        "localities": [],
        "categories": [],
        "priceTag": null,
        "isFreeEntry": true
      },
      {
        "id": "dummy-search-010",
        "type": "listing",
        "categorySlug": "kultur",
        "subcategorySlug": "theater",
        "categoryTitle": "Kultur",
        "subcategoryTitle": "Theater",
        "categoryTitleBackgroundColor": null,
        "categoryDescriptionBackgroundColor": null,
        "slug": "comedy-stand-up-show",
        "title": "Comedy Stand-Up Show",
        "summary": "Laugh along with hilarious stand-up performances from local comedians.",
        "content": "Laugh along with hilarious stand-up performances from local comedians.",
        "languageCode": "en",
        "moderationStatus": "approved",
        "status": "active",
        "visibility": "public",
        "isFeatured": false,
        "isHighlighted": false,
        "heroImageUrl": null,
        "categoryFallbackImage": null,
        "sourceUrl": null,
        "metadata": null,
        "viewCount": 0,
        "likeCount": 0,
        "shareCount": 0,
        "createdByUserId": null,
        "sourceType": "manual",
        "externalSource": null,
        "externalId": null,
        "lastSyncedAt": null,
        "venueName": "Comedy Hall",
        "address": "Comedy Hall, 11 Fun Street",
        "website": null,
        "eventStart": "2026-07-30T20:00:00.000Z",
        "eventEnd": "2026-07-30T22:00:00.000Z",
        "isAllDay": false,
        "organizerName": "Comedy Club",
        "isArchived": false,
        "notifySubscribers": false,
        "isFavorite": false,
        "isInterested": false,
        "createdAt": "2026-06-29T00:00:00.000Z",
        "updatedAt": "2026-06-29T00:00:00.000Z",
        "timeIntervals": [],
        "localities": [],
        "categories": [],
        "priceTag": null,
        "isFreeEntry": true
      },
      {
        "id": "dummy-search-011",
        "type": "listing",
        "categorySlug": "sonstiges",
        "subcategorySlug": "sonstiges",
        "categoryTitle": "Sonstiges",
        "subcategoryTitle": "Sonstiges",
        "categoryTitleBackgroundColor": null,
        "categoryDescriptionBackgroundColor": null,
        "slug": "cooking-workshop-world-cuisine",
        "title": "Cooking Workshop: World Cuisine",
        "summary": "Learn to cook dishes from around the world in this fun workshop.",
        "content": "Learn to cook dishes from around the world in this fun workshop.",
        "languageCode": "en",
        "moderationStatus": "approved",
        "status": "active",
        "visibility": "public",
        "isFeatured": false,
        "isHighlighted": false,
        "heroImageUrl": null,
        "categoryFallbackImage": null,
        "sourceUrl": null,
        "metadata": null,
        "viewCount": 0,
        "likeCount": 0,
        "shareCount": 0,
        "createdByUserId": null,
        "sourceType": "manual",
        "externalSource": null,
        "externalId": null,
        "lastSyncedAt": null,
        "venueName": "Cooking Studio",
        "address": "Cooking Studio, 7 Chef Lane",
        "website": null,
        "eventStart": "2026-08-01T14:00:00.000Z",
        "eventEnd": "2026-08-01T17:00:00.000Z",
        "isAllDay": false,
        "organizerName": "Culinary School",
        "isArchived": false,
        "notifySubscribers": false,
        "isFavorite": false,
        "isInterested": false,
        "createdAt": "2026-06-29T00:00:00.000Z",
        "updatedAt": "2026-06-29T00:00:00.000Z",
        "timeIntervals": [],
        "localities": [],
        "categories": [],
        "priceTag": null,
        "isFreeEntry": true
      },
      {
        "id": "dummy-search-012",
        "type": "listing",
        "categorySlug": "sonstiges",
        "subcategorySlug": "sonstiges",
        "categoryTitle": "Sonstiges",
        "subcategoryTitle": "Sonstiges",
        "categoryTitleBackgroundColor": null,
        "categoryDescriptionBackgroundColor": null,
        "slug": "evening-river-cruise",
        "title": "Evening River Cruise",
        "summary": "Enjoy a peaceful evening cruise on the river with live music.",
        "content": "Enjoy a peaceful evening cruise on the river with live music.",
        "languageCode": "en",
        "moderationStatus": "approved",
        "status": "active",
        "visibility": "public",
        "isFeatured": false,
        "isHighlighted": false,
        "heroImageUrl": null,
        "categoryFallbackImage": null,
        "sourceUrl": null,
        "metadata": null,
        "viewCount": 0,
        "likeCount": 0,
        "shareCount": 0,
        "createdByUserId": null,
        "sourceType": "manual",
        "externalSource": null,
        "externalId": null,
        "lastSyncedAt": null,
        "venueName": "River Dock",
        "address": "River Dock, Riverside Promenade",
        "website": null,
        "eventStart": "2026-08-03T18:00:00.000Z",
        "eventEnd": "2026-08-03T21:00:00.000Z",
        "isAllDay": false,
        "organizerName": "River Events",
        "isArchived": false,
        "notifySubscribers": false,
        "isFavorite": false,
        "isInterested": false,
        "createdAt": "2026-06-29T00:00:00.000Z",
        "updatedAt": "2026-06-29T00:00:00.000Z",
        "timeIntervals": [],
        "localities": [],
        "categories": [],
        "priceTag": null,
        "isFreeEntry": true
      }
    ],
    "meta": {
      "total": 120,
      "page": 1,
      "limit": 20,
      "totalPages": 6,
      "hasNextPage": true,
      "hasPreviousPage": false
    },
    "total": 120,
    "page": 1,
    "limit": 20,
    "totalPages": 6
  },
  "message": "Listings retrieved successfully",
  "statusCode": 200,
  "timestamp": "2026-06-29T00:00:00.000Z",
  "path": "/api/listings"
}