{
  "success": true,
  "data": {
    "items": [
      {
        "id": "dummy-main-001",
        "type": "listing",
        "categorySlug": "musik",
        "subcategorySlug": "musik",
        "categoryTitle": "Musik",
        "subcategoryTitle": "Musik",
        "categoryTitleBackgroundColor": null,
        "categoryDescriptionBackgroundColor": null,
        "slug": "city-park-music-festival",
        "title": "Music Festival at the City Park",
        "summary": "A lively outdoor music festival featuring local bands and artists.",
        "content": "A lively outdoor music festival featuring local bands and artists.",
        "languageCode": "en",
        "moderationStatus": "approved",
        "status": "active",
        "visibility": "public",
        "isFeatured": false,
        "isHighlighted": false,
        "heroImageUrl": "https://images.unsplash.com/photo-1462899006636-339e08d1844e?w=500&auto=format&fit=crop&q=60&ixlib=rb-4.1.0&ixid=M3wxMjA3fDB8MHxzZWFyY2h8MTJ8fHNtYXJ0JTIwY2l0eXxlbnwwfHwwfHx8MA%3D%3D",
        "categoryFallbackImage": "https://plus.unsplash.com/premium_photo-1669047983472-1eeb3a5ea6a5?w=500&auto=format&fit=crop&q=60&ixlib=rb-4.1.0&ixid=M3wxMjA3fDB8MHxzZWFyY2h8MTN8fG11bmljaXBhbGl0eXxlbnwwfHwwfHx8MA%3D%3D",
        "sourceUrl": null,
        "metadata": null,
        "viewCount": 0,
        "likeCount": 0,
        "shareCount": 0,
        "createdByUserId": null,
        "sourceType": "manual",
        "externalSource": null,
        "externalId": null,
        "lastSyncedAt": null,
        "venueName": "Music Hall",
        "address": "Music Hall, 14 Park Street",
        "website": null,
        "eventStart": "2026-07-05T18:00:00.000Z",
        "eventEnd": "2026-07-05T23:00:00.000Z",
        "isAllDay": false,
        "organizerName": "Festival Organizer",
        "isArchived": false,
        "notifySubscribers": false,
        "isFavorite": false,
        "isInterested": false,
        "createdAt": "2026-06-29T00:00:00.000Z",
        "updatedAt": "2026-06-29T00:00:00.000Z",
        "timeIntervals": [],
        "localities": [],
        "categories": [],
        "priceTag": null,
        "isFreeEntry": true
      },
      {
        "id": "dummy-main-002",
        "type": "listing",
        "categorySlug": "kultur",
        "subcategorySlug": "kunst",
        "categoryTitle": "Kultur",
        "subcategoryTitle": "Kunst",
        "categoryTitleBackgroundColor": null,
        "categoryDescriptionBackgroundColor": null,
        "slug": "art-exhibition-modern-visions",
        "title": "Art Exhibition: Modern Visions",
        "summary": "A curated exhibition showcasing contemporary art from regional artists.",
        "content": "A curated exhibition showcasing contemporary art from regional artists.",
        "languageCode": "en",
        "moderationStatus": "approved",
        "status": "active",
        "visibility": "public",
        "isFeatured": false,
        "isHighlighted": false,
        "heroImageUrl": "https://images.unsplash.com/photo-1462899006636-339e08d1844e?w=500&auto=format&fit=crop&q=60&ixlib=rb-4.1.0&ixid=M3wxMjA3fDB8MHxzZWFyY2h8MTJ8fHNtYXJ0JTIwY2l0eXxlbnwwfHwwfHx8MA%3D%3D",
        "categoryFallbackImage": "https://plus.unsplash.com/premium_photo-1669047983472-1eeb3a5ea6a5?w=500&auto=format&fit=crop&q=60&ixlib=rb-4.1.0&ixid=M3wxMjA3fDB8MHxzZWFyY2h8MTN8fG11bmljaXBhbGl0eXxlbnwwfHwwfHx8MA%3D%3D",
        "sourceUrl": null,
        "metadata": null,
        "viewCount": 0,
        "likeCount": 0,
        "shareCount": 0,
        "createdByUserId": null,
        "sourceType": "manual",
        "externalSource": null,
        "externalId": null,
        "lastSyncedAt": null,
        "venueName": "City Gallery",
        "address": "City Gallery, 3 Art Lane",
        "website": null,
        "eventStart": "2026-07-08T10:00:00.000Z",
        "eventEnd": "2026-07-08T20:00:00.000Z",
        "isAllDay": false,
        "organizerName": "City Arts Society",
        "isArchived": false,
        "notifySubscribers": false,
        "isFavorite": false,
        "isInterested": false,
        "createdAt": "2026-06-29T00:00:00.000Z",
        "updatedAt": "2026-06-29T00:00:00.000Z",
        "timeIntervals": [],
        "localities": [],
        "categories": [],
        "priceTag": null,
        "isFreeEntry": true
      },
      {
        "id": "dummy-main-003",
        "type": "listing",
        "categorySlug": "kultur",
        "subcategorySlug": "freizeit",
        "categoryTitle": "Kultur",
        "subcategoryTitle": "Freizeit",
        "categoryTitleBackgroundColor": null,
        "categoryDescriptionBackgroundColor": null,
        "slug": "open-air-cinema-night",
        "title": "Open Air Cinema Night",
        "summary": "Enjoy classic films under the stars at the riverside meadow.",
        "content": "Enjoy classic films under the stars at the riverside meadow.",
        "languageCode": "en",
        "moderationStatus": "approved",
        "status": "active",
        "visibility": "public",
        "isFeatured": false,
        "isHighlighted": false,
        "heroImageUrl": "https://images.unsplash.com/photo-1462899006636-339e08d1844e?w=500&auto=format&fit=crop&q=60&ixlib=rb-4.1.0&ixid=M3wxMjA3fDB8MHxzZWFyY2h8MTJ8fHNtYXJ0JTIwY2l0eXxlbnwwfHwwfHx8MA%3D%3D",
        "categoryFallbackImage": "https://plus.unsplash.com/premium_photo-1669047983472-1eeb3a5ea6a5?w=500&auto=format&fit=crop&q=60&ixlib=rb-4.1.0&ixid=M3wxMjA3fDB8MHxzZWFyY2h8MTN8fG11bmljaXBhbGl0eXxlbnwwfHwwfHx8MA%3D%3D",
        "sourceUrl": null,
        "metadata": null,
        "viewCount": 0,
        "likeCount": 0,
        "shareCount": 0,
        "createdByUserId": null,
        "sourceType": "manual",
        "externalSource": null,
        "externalId": null,
        "lastSyncedAt": null,
        "venueName": "Riverside Meadow",
        "address": "Riverside Meadow, West Bank",
        "website": null,
        "eventStart": "2026-07-12T20:30:00.000Z",
        "eventEnd": "2026-07-12T23:30:00.000Z",
        "isAllDay": false,
        "organizerName": "Community Events",
        "isArchived": false,
        "notifySubscribers": false,
        "isFavorite": false,
        "isInterested": false,
        "createdAt": "2026-06-29T00:00:00.000Z",
        "updatedAt": "2026-06-29T00:00:00.000Z",
        "timeIntervals": [],
        "localities": [],
        "categories": [],
        "priceTag": null,
        "isFreeEntry": true
      },
      {
        "id": "dummy-main-004",
        "type": "listing",
        "categorySlug": "musik",
        "subcategorySlug": "konzert",
        "categoryTitle": "Musik",
        "subcategoryTitle": "Konzert",
        "categoryTitleBackgroundColor": null,
        "categoryDescriptionBackgroundColor": null,
        "slug": "city-jazz-evening",
        "title": "City Jazz Evening",
        "summary": "An intimate jazz night with talented local musicians.",
        "content": "An intimate jazz night with talented local musicians.",
        "languageCode": "en",
        "moderationStatus": "approved",
        "status": "active",
        "visibility": "public",
        "isFeatured": false,
        "isHighlighted": false,
        "heroImageUrl": "https://images.unsplash.com/photo-1462899006636-339e08d1844e?w=500&auto=format&fit=crop&q=60&ixlib=rb-4.1.0&ixid=M3wxMjA3fDB8MHxzZWFyY2h8MTJ8fHNtYXJ0JTIwY2l0eXxlbnwwfHwwfHx8MA%3D%3D",
        "categoryFallbackImage": "https://plus.unsplash.com/premium_photo-1669047983472-1eeb3a5ea6a5?w=500&auto=format&fit=crop&q=60&ixlib=rb-4.1.0&ixid=M3wxMjA3fDB8MHxzZWFyY2h8MTN8fG11bmljaXBhbGl0eXxlbnwwfHwwfHx8MA%3D%3D",
        "sourceUrl": null,
        "metadata": null,
        "viewCount": 0,
        "likeCount": 0,
        "shareCount": 0,
        "createdByUserId": null,
        "sourceType": "manual",
        "externalSource": null,
        "externalId": null,
        "lastSyncedAt": null,
        "venueName": "Jazz Lounge",
        "address": "Jazz Lounge, 5 Music Square",
        "website": null,
        "eventStart": "2026-07-15T19:00:00.000Z",
        "eventEnd": "2026-07-15T22:30:00.000Z",
        "isAllDay": false,
        "organizerName": "Jazz Club",
        "isArchived": false,
        "notifySubscribers": false,
        "isFavorite": false,
        "isInterested": false,
        "createdAt": "2026-06-29T00:00:00.000Z",
        "updatedAt": "2026-06-29T00:00:00.000Z",
        "timeIntervals": [],
        "localities": [],
        "categories": [],
        "priceTag": null,
        "isFreeEntry": true
      },
      {
        "id": "dummy-main-005",
        "type": "listing",
        "categorySlug": "kultur",
        "subcategorySlug": "workshop",
        "categoryTitle": "Kultur",
        "subcategoryTitle": "Workshop",
        "categoryTitleBackgroundColor": null,
        "categoryDescriptionBackgroundColor": null,
        "slug": "photography-workshop",
        "title": "Photography Workshop",
        "summary": "Learn the fundamentals of photography in this hands-on workshop.",
        "content": "Learn the fundamentals of photography in this hands-on workshop.",
        "languageCode": "en",
        "moderationStatus": "approved",
        "status": "active",
        "visibility": "public",
        "isFeatured": false,
        "isHighlighted": false,
        "heroImageUrl": "https://images.unsplash.com/photo-1462899006636-339e08d1844e?w=500&auto=format&fit=crop&q=60&ixlib=rb-4.1.0&ixid=M3wxMjA3fDB8MHxzZWFyY2h8MTJ8fHNtYXJ0JTIwY2l0eXxlbnwwfHwwfHx8MA%3D%3D",
        "categoryFallbackImage": "https://plus.unsplash.com/premium_photo-1669047983472-1eeb3a5ea6a5?w=500&auto=format&fit=crop&q=60&ixlib=rb-4.1.0&ixid=M3wxMjA3fDB8MHxzZWFyY2h8MTN8fG11bmljaXBhbGl0eXxlbnwwfHwwfHx8MA%3D%3D",
        "sourceUrl": null,
        "metadata": null,
        "viewCount": 0,
        "likeCount": 0,
        "shareCount": 0,
        "createdByUserId": null,
        "sourceType": "manual",
        "externalSource": null,
        "externalId": null,
        "lastSyncedAt": null,
        "venueName": "Creative Studio",
        "address": "Creative Studio, 22 Workshop Road",
        "website": null,
        "eventStart": "2026-07-18T14:00:00.000Z",
        "eventEnd": "2026-07-18T17:00:00.000Z",
        "isAllDay": false,
        "organizerName": "Creative Academy",
        "isArchived": false,
        "notifySubscribers": false,
        "isFavorite": false,
        "isInterested": false,
        "createdAt": "2026-06-29T00:00:00.000Z",
        "updatedAt": "2026-06-29T00:00:00.000Z",
        "timeIntervals": [],
        "localities": [],
        "categories": [],
        "priceTag": null,
        "isFreeEntry": true
      },
      {
        "id": "dummy-main-006",
        "type": "listing",
        "categorySlug": "kultur",
        "subcategorySlug": "theater",
        "categoryTitle": "Kultur",
        "subcategoryTitle": "Theater",
        "categoryTitleBackgroundColor": null,
        "categoryDescriptionBackgroundColor": null,
        "slug": "summer-dance-performance",
        "title": "Summer Dance Performance",
        "summary": "Watch talented dancers perform a mix of contemporary and classical styles.",
        "content": "Watch talented dancers perform a mix of contemporary and classical styles.",
        "languageCode": "en",
        "moderationStatus": "approved",
        "status": "active",
        "visibility": "public",
        "isFeatured": false,
        "isHighlighted": false,
        "heroImageUrl": "https://images.unsplash.com/photo-1462899006636-339e08d1844e?w=500&auto=format&fit=crop&q=60&ixlib=rb-4.1.0&ixid=M3wxMjA3fDB8MHxzZWFyY2h8MTJ8fHNtYXJ0JTIwY2l0eXxlbnwwfHwwfHx8MA%3D%3D",
        "categoryFallbackImage": "https://plus.unsplash.com/premium_photo-1669047983472-1eeb3a5ea6a5?w=500&auto=format&fit=crop&q=60&ixlib=rb-4.1.0&ixid=M3wxMjA3fDB8MHxzZWFyY2h8MTN8fG11bmljaXBhbGl0eXxlbnwwfHwwfHx8MA%3D%3D",
        "sourceUrl": null,
        "metadata": null,
        "viewCount": 0,
        "likeCount": 0,
        "shareCount": 0,
        "createdByUserId": null,
        "sourceType": "manual",
        "externalSource": null,
        "externalId": null,
        "lastSyncedAt": null,
        "venueName": "Main Theater",
        "address": "Main Theater, 1 Stage Avenue",
        "website": null,
        "eventStart": "2026-07-20T19:30:00.000Z",
        "eventEnd": "2026-07-20T21:30:00.000Z",
        "isAllDay": false,
        "organizerName": "Dance Company",
        "isArchived": false,
        "notifySubscribers": false,
        "isFavorite": false,
        "isInterested": false,
        "createdAt": "2026-06-29T00:00:00.000Z",
        "updatedAt": "2026-06-29T00:00:00.000Z",
        "timeIntervals": [],
        "localities": [],
        "categories": [],
        "priceTag": null,
        "isFreeEntry": true
      },
      {
        "id": "dummy-main-007",
        "type": "listing",
        "categorySlug": "musik",
        "subcategorySlug": "musik",
        "categoryTitle": "Musik",
        "subcategoryTitle": "Musik",
        "categoryTitleBackgroundColor": null,
        "categoryDescriptionBackgroundColor": null,
        "slug": "acoustic-sessions-garden",
        "title": "Acoustic Sessions in the Garden",
        "summary": "Relaxing live acoustic performances in a beautiful garden setting.",
        "content": "Relaxing live acoustic performances in a beautiful garden setting.",
        "languageCode": "en",
        "moderationStatus": "approved",
        "status": "active",
        "visibility": "public",
        "isFeatured": false,
        "isHighlighted": false,
        "heroImageUrl": "https://images.unsplash.com/photo-1462899006636-339e08d1844e?w=500&auto=format&fit=crop&q=60&ixlib=rb-4.1.0&ixid=M3wxMjA3fDB8MHxzZWFyY2h8MTJ8fHNtYXJ0JTIwY2l0eXxlbnwwfHwwfHx8MA%3D%3D",
        "categoryFallbackImage": "https://plus.unsplash.com/premium_photo-1669047983472-1eeb3a5ea6a5?w=500&auto=format&fit=crop&q=60&ixlib=rb-4.1.0&ixid=M3wxMjA3fDB8MHxzZWFyY2h8MTN8fG11bmljaXBhbGl0eXxlbnwwfHwwfHx8MA%3D%3D",
        "sourceUrl": null,
        "metadata": null,
        "viewCount": 0,
        "likeCount": 0,
        "shareCount": 0,
        "createdByUserId": null,
        "sourceType": "manual",
        "externalSource": null,
        "externalId": null,
        "lastSyncedAt": null,
        "venueName": "Botanical Garden",
        "address": "Botanical Garden, Garden Path 7",
        "website": null,
        "eventStart": "2026-07-22T17:00:00.000Z",
        "eventEnd": "2026-07-22T20:00:00.000Z",
        "isAllDay": false,
        "organizerName": "Garden Events",
        "isArchived": false,
        "notifySubscribers": false,
        "isFavorite": false,
        "isInterested": false,
        "createdAt": "2026-06-29T00:00:00.000Z",
        "updatedAt": "2026-06-29T00:00:00.000Z",
        "timeIntervals": [],
        "localities": [],
        "categories": [],
        "priceTag": null,
        "isFreeEntry": true
      },
      {
        "id": "dummy-main-008",
        "type": "listing",
        "categorySlug": "kultur",
        "subcategorySlug": "kultur",
        "categoryTitle": "Kultur",
        "subcategoryTitle": "Kultur",
        "categoryTitleBackgroundColor": null,
        "categoryDescriptionBackgroundColor": null,
        "slug": "cultural-heritage-walk",
        "title": "Cultural Heritage Walk",
        "summary": "Guided walking tour exploring the cultural landmarks of the city.",
        "content": "Guided walking tour exploring the cultural landmarks of the city.",
        "languageCode": "en",
        "moderationStatus": "approved",
        "status": "active",
        "visibility": "public",
        "isFeatured": false,
        "isHighlighted": false,
        "heroImageUrl": "https://images.unsplash.com/photo-1462899006636-339e08d1844e?w=500&auto=format&fit=crop&q=60&ixlib=rb-4.1.0&ixid=M3wxMjA3fDB8MHxzZWFyY2h8MTJ8fHNtYXJ0JTIwY2l0eXxlbnwwfHwwfHx8MA%3D%3D",
        "categoryFallbackImage": "https://plus.unsplash.com/premium_photo-1669047983472-1eeb3a5ea6a5?w=500&auto=format&fit=crop&q=60&ixlib=rb-4.1.0&ixid=M3wxMjA3fDB8MHxzZWFyY2h8MTN8fG11bmljaXBhbGl0eXxlbnwwfHwwfHx8MA%3D%3D",
        "sourceUrl": null,
        "metadata": null,
        "viewCount": 0,
        "likeCount": 0,
        "shareCount": 0,
        "createdByUserId": null,
        "sourceType": "manual",
        "externalSource": null,
        "externalId": null,
        "lastSyncedAt": null,
        "venueName": "Town Hall Square",
        "address": "Town Hall Square, City Center",
        "website": null,
        "eventStart": "2026-07-25T10:00:00.000Z",
        "eventEnd": "2026-07-25T12:30:00.000Z",
        "isAllDay": false,
        "organizerName": "Heritage Society",
        "isArchived": false,
        "notifySubscribers": false,
        "isFavorite": false,
        "isInterested": false,
        "createdAt": "2026-06-29T00:00:00.000Z",
        "updatedAt": "2026-06-29T00:00:00.000Z",
        "timeIntervals": [],
        "localities": [],
        "categories": [],
        "priceTag": null,
        "isFreeEntry": true
      },
      {
        "id": "dummy-main-009",
        "type": "listing",
        "categorySlug": "sonstiges",
        "subcategorySlug": "sonstiges",
        "categoryTitle": "Sonstiges",
        "subcategoryTitle": "Sonstiges",
        "categoryTitleBackgroundColor": null,
        "categoryDescriptionBackgroundColor": null,
        "slug": "street-food-festival",
        "title": "Street Food Festival",
        "summary": "Sample delicious street food from diverse cuisines at the central market.",
        "content": "Sample delicious street food from diverse cuisines at the central market.",
        "languageCode": "en",
        "moderationStatus": "approved",
        "status": "active",
        "visibility": "public",
        "isFeatured": false,
        "isHighlighted": false,
        "heroImageUrl": "https://images.unsplash.com/photo-1462899006636-339e08d1844e?w=500&auto=format&fit=crop&q=60&ixlib=rb-4.1.0&ixid=M3wxMjA3fDB8MHxzZWFyY2h8MTJ8fHNtYXJ0JTIwY2l0eXxlbnwwfHwwfHx8MA%3D%3D",
        "categoryFallbackImage": "https://plus.unsplash.com/premium_photo-1669047983472-1eeb3a5ea6a5?w=500&auto=format&fit=crop&q=60&ixlib=rb-4.1.0&ixid=M3wxMjA3fDB8MHxzZWFyY2h8MTN8fG11bmljaXBhbGl0eXxlbnwwfHwwfHx8MA%3D%3D",
        "sourceUrl": null,
        "metadata": null,
        "viewCount": 0,
        "likeCount": 0,
        "shareCount": 0,
        "createdByUserId": null,
        "sourceType": "manual",
        "externalSource": null,
        "externalId": null,
        "lastSyncedAt": null,
        "venueName": "Central Market",
        "address": "Central Market, Market Place 1",
        "website": null,
        "eventStart": "2026-07-27T11:00:00.000Z",
        "eventEnd": "2026-07-27T21:00:00.000Z",
        "isAllDay": false,
        "organizerName": "Food Festival Team",
        "isArchived": false,
        "notifySubscribers": false,
        "isFavorite": false,
        "isInterested": false,
        "createdAt": "2026-06-29T00:00:00.000Z",
        "updatedAt": "2026-06-29T00:00:00.000Z",
        "timeIntervals": [],
        "localities": [],
        "categories": [],
        "priceTag": null,
        "isFreeEntry": true
      }
    ],
    "meta": {
      "total": 1000,
      "page": 1,
      "limit": 20,
      "totalPages": 50,
      "hasNextPage": true,
      "hasPreviousPage": false
    },
    "total": 1000,
    "page": 1,
    "limit": 20,
    "totalPages": 50
  },
  "message": "Listings retrieved successfully",
  "statusCode": 200,
  "timestamp": "2026-06-29T00:00:00.000Z",
  "path": "/api/listings"
}